%!PS-Adobe-3.0 EPSF-3.0
%%Creator: cairo 1.14.8 (http://cairographics.org)
%%CreationDate: Fri Dec 15 17:07:36 2017
%%Pages: 1
%%DocumentData: Clean7Bit
%%LanguageLevel: 2
%%BoundingBox: 2 -1 297 99
%%EndComments
%%BeginProlog
save
50 dict begin
/q { gsave } bind def
/Q { grestore } bind def
/cm { 6 array astore concat } bind def
/w { setlinewidth } bind def
/J { setlinecap } bind def
/j { setlinejoin } bind def
/M { setmiterlimit } bind def
/d { setdash } bind def
/m { moveto } bind def
/l { lineto } bind def
/c { curveto } bind def
/h { closepath } bind def
/re { exch dup neg 3 1 roll 5 3 roll moveto 0 rlineto
      0 exch rlineto 0 rlineto closepath } bind def
/S { stroke } bind def
/f { fill } bind def
/f* { eofill } bind def
/n { newpath } bind def
/W { clip } bind def
/W* { eoclip } bind def
/BT { } bind def
/ET { } bind def
/pdfmark where { pop globaldict /?pdfmark /exec load put }
    { globaldict begin /?pdfmark /pop load def /pdfmark
    /cleartomark load def end } ifelse
/BDC { mark 3 1 roll /BDC pdfmark } bind def
/EMC { mark /EMC pdfmark } bind def
/cairo_store_point { /cairo_point_y exch def /cairo_point_x exch def } def
/Tj { show currentpoint cairo_store_point } bind def
/TJ {
  {
    dup
    type /stringtype eq
    { show } { -0.001 mul 0 cairo_font_matrix dtransform rmoveto } ifelse
  } forall
  currentpoint cairo_store_point
} bind def
/cairo_selectfont { cairo_font_matrix aload pop pop pop 0 0 6 array astore
    cairo_font exch selectfont cairo_point_x cairo_point_y moveto } bind def
/Tf { pop /cairo_font exch def /cairo_font_matrix where
      { pop cairo_selectfont } if } bind def
/Td { matrix translate cairo_font_matrix matrix concatmatrix dup
      /cairo_font_matrix exch def dup 4 get exch 5 get cairo_store_point
      /cairo_font where { pop cairo_selectfont } if } bind def
/Tm { 2 copy 8 2 roll 6 array astore /cairo_font_matrix exch def
      cairo_store_point /cairo_font where { pop cairo_selectfont } if } bind def
/g { setgray } bind def
/rg { setrgbcolor } bind def
/d1 { setcachedevice } bind def
%%EndProlog
%%BeginSetup
%%EndSetup
%%Page: 1 1
%%BeginPageSetup
%%PageBoundingBox: 2 -1 297 99
%%EndPageSetup
q 2 -1 295 100 rectclip q
0 g
0.80008 w
0 J
0 j
[] 0.0 d
22.9256 M q 1 0 0 -1 0 99.840012 cm
18.16 12.32 m 72.879 12.32 l S Q
59.602 85.36 m 59.359 85.68 l 62.559 87.762 l 62.961 87.121 l 59.762 85.039
 l h
63.039 87.121 m 63.039 87.762 l 63.602 87.442 l h
63.039 87.121 m 62.641 87.762 l 62.641 87.121 l 59.441 89.199 l 59.84 89.84
 l 63.039 87.762 l h
62.16 87.039 m 61.922 87.039 l 61.922 87.84 l 62.16 87.84 l h
62.16 87.039 m f
14.559 28.32 m 14.879 28.559 l 16.961 25.36 l 16.32 24.961 l 14.238 28.16
 l h
16.32 24.879 m 16.961 24.879 l 16.641 24.32 l h
16.32 24.879 m 16.961 25.281 l 16.32 25.281 l 18.398 28.481 l 19.039 28.078
 l 16.961 24.879 l h
16.238 25.762 m 16.238 80.399 l 17.039 80.399 l 17.039 25.762 l h
16.238 25.762 m f
144.559 28.641 m 144.879 28.879 l 146.961 25.68 l 146.32 25.281 l 144.238
 28.481 l h
146.32 25.281 m 146.961 25.281 l 146.641 24.719 l h
146.32 25.281 m 146.961 25.68 l 146.32 25.68 l 148.398 28.879 l 149.039
 28.481 l 146.961 25.281 l h
146.238 26.078 m 146.238 83.039 l 147.039 83.039 l 147.039 26.078 l h
146.238 26.078 m f
1 g
16.641 20.961 m 17.762 20.961 18.641 20.078 18.641 18.961 c 18.641 17.84
 17.762 16.961 16.641 16.961 c 15.52 16.961 14.641 17.84 14.641 18.961 c
 14.719 20.078 15.602 20.961 16.641 20.961 c h
16.641 20.961 m f*
0 g
q 1 0 0 -1 0 99.840012 cm
16.641 78.879 m 17.762 78.879 18.641 79.762 18.641 80.879 c 18.641 82 17.762
 82.879 16.641 82.879 c 15.52 82.879 14.641 82 14.641 80.879 c 14.719 79.762
 15.602 78.879 16.641 78.879 c h
16.641 78.879 m S Q
q 1 0 0 -1 0 99.840012 cm
16.641 92.48 m 16.641 82.961 l S Q
1 g
20.879 7.121 m 16.641 0.719 l 12.398 7.121 l h
20.879 7.121 m f
0 g
q 1 0 0 -1 0 99.840012 cm
20.879 92.719 m 16.641 99.121 l 12.398 92.719 l h
20.879 92.719 m S Q
1 g
146.641 21.121 m 147.762 21.121 148.641 20.238 148.641 19.121 c 148.641
 18 147.762 17.121 146.641 17.121 c 145.52 17.121 144.641 18 144.641 19.121
 c 144.641 20.238 145.52 21.121 146.641 21.121 c h
146.641 21.121 m f*
0 g
q 1 0 0 -1 0 99.840012 cm
146.641 78.719 m 147.762 78.719 148.641 79.602 148.641 80.719 c 148.641
 81.84 147.762 82.719 146.641 82.719 c 145.52 82.719 144.641 81.84 144.641
 80.719 c 144.641 79.602 145.52 78.719 146.641 78.719 c h
146.641 78.719 m S Q
q 1 0 0 -1 0 99.840012 cm
146.641 92.32 m 146.641 82.801 l S Q
1 g
150.879 7.281 m 146.641 0.879 l 142.398 7.281 l h
150.879 7.281 m f
0 g
q 1 0 0 -1 0 99.840012 cm
150.879 92.559 m 146.641 98.961 l 142.398 92.559 l h
150.879 92.559 m S Q
1 g
36.238 91.52 m 42.641 87.281 l 36.238 83.039 l h
36.238 91.52 m f
0 g
q 1 0 0 -1 0 99.840012 cm
36.238 8.32 m 42.641 12.559 l 36.238 16.801 l h
36.238 8.32 m S Q
q 1 0 0 -1 0 99.840012 cm
43.039 17.281 m 43.039 7.441 l S Q
1 g
16.398 89.442 m 17.52 89.442 18.398 88.559 18.398 87.442 c 18.398 86.32
 17.52 85.442 16.398 85.442 c 15.281 85.442 14.398 86.32 14.398 87.442 c
 14.48 88.559 15.359 89.442 16.398 89.442 c h
16.398 89.442 m f*
0 g
q 1 0 0 -1 0 99.840012 cm
16.398 10.398 m 17.52 10.398 18.398 11.281 18.398 12.398 c 18.398 13.52
 17.52 14.398 16.398 14.398 c 15.281 14.398 14.398 13.52 14.398 12.398 c
 14.48 11.281 15.359 10.398 16.398 10.398 c h
16.398 10.398 m S Q
104.238 69.199 m 104.559 69.442 l 106.641 66.238 l 106 65.84 l 103.922 
69.039 l h
106 65.762 m 106.641 65.762 l 106.32 65.199 l h
106 65.762 m 106.641 66.16 l 106 66.16 l 108.078 69.36 l 108.719 68.961
 l 106.641 65.762 l h
105.922 66.641 m 105.922 66.879 l 106.719 66.879 l 106.719 66.641 l h
105.922 66.641 m f
159.602 85.442 m 159.359 85.762 l 162.559 87.84 l 162.961 87.199 l 159.762
 85.121 l h
162.961 87.199 m 162.961 87.84 l 163.52 87.52 l h
162.961 87.199 m 162.559 87.84 l 162.559 87.199 l 159.359 89.281 l 159.762
 89.918 l 162.961 87.84 l h
162.16 87.121 m 161.52 87.121 l 161.52 87.918 l 162.16 87.918 l h
162.16 87.121 m f
q 1 0 0 -1 0 99.840012 cm
106.32 92.078 m 106.32 12.801 l S Q
q 1 0 0 -1 0 99.840012 cm
264.559 92.32 m 264.559 12.801 l S Q
q 1 0 0 -1 0 99.840012 cm
284.801 92.32 m 285.039 12.48 l 70.719 12.398 l S Q
1 g
110.559 7.52 m 106.32 1.039 l 102.078 7.52 l h
110.559 7.52 m f
0 g
q 1 0 0 -1 0 99.840012 cm
110.559 92.32 m 106.32 98.801 l 102.078 92.32 l h
110.559 92.32 m S Q
1 g
268.801 7.52 m 264.559 1.121 l 260.32 7.52 l h
268.801 7.52 m f
0 g
q 1 0 0 -1 0 99.840012 cm
268.801 92.32 m 264.559 98.719 l 260.32 92.32 l h
268.801 92.32 m S Q
1 g
289.039 7.52 m 284.801 1.121 l 280.559 7.52 l h
289.039 7.52 m f
0 g
q 1 0 0 -1 0 99.840012 cm
289.039 92.32 m 284.801 98.719 l 280.559 92.32 l h
289.039 92.32 m S Q
1 g
98.078 48.719 16.402 -3.117 re f*
0 g
q 1 0 0 -1 0 99.840012 cm
98.078 51.199 m 114.559 51.199 l S Q
q 1 0 0 -1 0 99.840012 cm
98.078 54.078 m 114.559 54.078 l S Q
1 g
256.32 48.719 16.398 -3.117 re f*
0 g
q 1 0 0 -1 0 99.840012 cm
256.32 51.199 m 272.801 51.199 l S Q
q 1 0 0 -1 0 99.840012 cm
256.32 54.078 m 272.801 54.078 l S Q
1 g
176.559 91.68 m 182.961 87.442 l 176.559 83.199 l h
176.559 91.68 m f
0 g
q 1 0 0 -1 0 99.840012 cm
176.559 8.16 m 182.961 12.398 l 176.559 16.641 l h
176.559 8.16 m S Q
q 1 0 0 -1 0 99.840012 cm
183.359 17.121 m 183.359 7.281 l S Q
1 g
147.281 89.602 m 148.398 89.602 149.281 88.719 149.281 87.602 c 149.281
 86.481 148.398 85.602 147.281 85.602 c 146.16 85.602 145.281 86.481 145.281
 87.602 c 145.359 88.719 146.238 89.602 147.281 89.602 c h
147.281 89.602 m f*
0 g
q 1 0 0 -1 0 99.840012 cm
147.281 10.238 m 148.398 10.238 149.281 11.121 149.281 12.238 c 149.281
 13.359 148.398 14.238 147.281 14.238 c 146.16 14.238 145.281 13.359 145.281
 12.238 c 145.359 11.121 146.238 10.238 147.281 10.238 c h
147.281 10.238 m S Q
1 g
70.32 89.602 m 71.441 89.602 72.32 88.719 72.32 87.602 c 72.32 86.481 71.441
 85.602 70.32 85.602 c 69.199 85.602 68.32 86.481 68.32 87.602 c 68.398 
88.719 69.281 89.602 70.32 89.602 c h
70.32 89.602 m f*
0 g
q 1 0 0 -1 0 99.840012 cm
70.32 10.238 m 71.441 10.238 72.32 11.121 72.32 12.238 c 72.32 13.359 71.441
 14.238 70.32 14.238 c 69.199 14.238 68.32 13.359 68.32 12.238 c 68.398 
11.121 69.281 10.238 70.32 10.238 c h
70.32 10.238 m S Q
1 g
219.441 89.84 20 -4.32 re f*
0 g
q 1 0 0 -1 0 99.840012 cm
219.441 10 20 4.32 re S Q
1 g
282.641 57.199 4.32 -20 re f*
0 g
q 1 0 0 -1 0 99.840012 cm
282.641 42.641 4.32 20 re S Q
[ 1.6 0.8] 0 d
q 1 0 0 -1 0 99.840012 cm
83.281 2 m 128 2 l 129.922 2 131.441 3.52 131.441 5.441 c 131.441 84.398
 l 131.441 86.32 129.922 87.84 128 87.84 c 83.281 87.84 l 81.359 87.84 79.84
 86.32 79.84 84.398 c 79.84 5.441 l 79.84 3.52 81.359 2 83.281 2 c h
83.281 2 m S Q
185.922 77.039 m 185.68 77.36 l 188.879 79.442 l 189.281 78.801 l 186.078
 76.719 l h
189.359 78.801 m 189.359 79.442 l 189.922 79.121 l h
189.359 78.801 m 188.961 79.442 l 188.961 78.801 l 185.762 80.879 l 186.16
 81.52 l 189.359 79.442 l h
188.48 78.719 m 171.281 78.719 l 171.281 79.52 l 188.48 79.52 l h
188.48 78.719 m f
44.238 77.039 m 44 77.36 l 47.199 79.442 l 47.602 78.801 l 44.398 76.719
 l h
47.68 78.801 m 47.68 79.442 l 48.238 79.121 l h
47.68 78.801 m 47.199 79.442 l 47.199 78.801 l 44 80.879 l 44.398 81.52
 l 47.602 79.442 l 47.602 78.801 l h
46.801 78.719 m 29.602 78.719 l 29.602 79.52 l 46.801 79.52 l h
46.801 78.719 m f
198.879 28.481 m 199.199 28.719 l 201.281 25.52 l 200.641 25.121 l 198.559
 28.32 l h
200.559 25.039 m 201.199 25.039 l 200.879 24.481 l h
200.559 25.039 m 201.199 25.442 l 200.559 25.442 l 202.641 28.641 l 203.281
 28.238 l 201.199 25.039 l h
200.559 25.918 m 200.559 82.879 l 201.359 82.879 l 201.359 25.918 l h
200.559 25.918 m f
1 g
200.961 21.121 m 202.078 21.121 202.961 20.238 202.961 19.121 c 202.961
 18 202.078 17.121 200.961 17.121 c 199.84 17.121 198.961 18 198.961 19.121
 c 198.961 20.238 199.84 21.121 200.961 21.121 c h
200.961 21.121 m f*
0 g
[] 0.0 d
q 1 0 0 -1 0 99.840012 cm
200.961 78.719 m 202.078 78.719 202.961 79.602 202.961 80.719 c 202.961
 81.84 202.078 82.719 200.961 82.719 c 199.84 82.719 198.961 81.84 198.961
 80.719 c 198.961 79.602 199.84 78.719 200.961 78.719 c h
200.961 78.719 m S Q
q 1 0 0 -1 0 99.840012 cm
200.961 92.398 m 200.961 82.801 l S Q
1 g
205.199 7.281 m 200.961 0.801 l 196.719 7.281 l h
205.199 7.281 m f
0 g
q 1 0 0 -1 0 99.840012 cm
205.199 92.559 m 200.961 99.039 l 196.719 92.559 l h
205.199 92.559 m S Q
1 g
200.961 89.52 m 202.078 89.52 202.961 88.641 202.961 87.52 c 202.961 86.399
 202.078 85.52 200.961 85.52 c 199.84 85.52 198.961 86.399 198.961 87.52
 c 198.961 88.641 199.84 89.52 200.961 89.52 c h
200.961 89.52 m f*
0 g
q 1 0 0 -1 0 99.840012 cm
200.961 10.32 m 202.078 10.32 202.961 11.199 202.961 12.32 c 202.961 13.441
 202.078 14.32 200.961 14.32 c 199.84 14.32 198.961 13.441 198.961 12.32
 c 198.961 11.199 199.84 10.32 200.961 10.32 c h
200.961 10.32 m S Q
113.359 50.801 m 112.961 50.879 l 113.84 54.559 l 114.641 54.399 l 113.762
 50.719 l h
114.641 54.399 m 114.16 54.879 l 114.801 54.961 l h
114.641 54.399 m 113.84 54.559 l 114.32 54.078 l 110.559 53.36 l 110.398
 54.16 l 114.16 54.879 l h
114.078 53.762 m 99.121 39.52 l 98.559 40.078 l 113.52 54.32 l h
114.078 53.762 m f
2.973 44.824 m 2.965 44.797 l 2.953 44.766 l 2.953 44.738 l 2.945 44.707
 l 2.934 44.692 l 2.934 44.66 l 2.926 44.641 l 2.914 44.621 l 2.906 44.602
 l 2.906 44.582 l 2.895 44.567 l 2.887 44.555 l 2.875 44.535 l 2.855 44.516
 l 2.84 44.508 l 2.82 44.488 l 2.801 44.477 l 2.762 44.461 l 2.742 44.461
 l 2.723 44.449 l 2.703 44.449 l 2.676 44.442 l 2.637 44.442 l 2.625 44.43
 l 2.453 44.43 l 2.34 44.43 2.234 44.43 2.234 44.246 c 2.234 44.172 2.281
 44.133 2.359 44.133 c 2.617 44.133 2.895 44.16 3.164 44.16 c 3.48 44.16
 3.797 44.133 4.105 44.133 c 4.152 44.133 4.277 44.133 4.277 44.324 c 4.277
 44.43 4.184 44.43 4.047 44.43 c 3.578 44.43 3.578 44.496 3.578 44.582 c
 3.578 44.699 3.973 46.254 4.039 46.496 c 4.164 46.215 4.434 45.879 4.922
 45.879 c 4.91 46.09 l 4.277 46.09 4.152 46.887 4.152 46.945 c 4.152 46.965
 4.152 46.985 4.184 47.098 c 4.652 48.973 l 4.719 49.231 4.98 49.5 5.152
 49.645 c 5.488 49.942 5.766 50.008 5.93 50.008 c 6.305 50.008 6.535 49.672
 6.535 49.106 c 6.535 48.539 6.227 47.445 6.055 47.078 c 5.727 46.406 5.266
 46.09 4.91 46.09 c 4.922 45.879 l 6.035 45.879 7.227 47.281 7.227 48.684
 c 7.227 49.586 6.68 50.219 5.957 50.219 c 5.477 50.219 5.016 49.875 4.699
 49.5 c 4.605 50.016 4.191 50.219 3.848 50.219 c 3.406 50.219 3.223 49.844
 3.137 49.672 c 2.965 49.344 2.84 48.77 2.84 48.742 c 2.84 48.645 2.934 
48.645 2.953 48.645 c 3.051 48.645 3.059 48.653 3.117 48.867 c 3.281 49.547
 3.473 50.008 3.816 50.008 c 3.973 50.008 4.105 49.93 4.105 49.567 c 4.105
 49.344 4.078 49.238 4.039 49.078 c h
2.973 44.824 m f*
8.734 49.203 m 7.734 49.125 l 7.734 48.883 l 8.184 48.883 8.234 48.836 
8.234 48.512 c 8.234 45.082 l 8.234 44.797 8.168 44.797 7.734 44.797 c 7.734
 44.555 l 7.742 44.555 8.215 44.582 8.484 44.582 c 8.734 44.582 8.98 44.574
 9.242 44.555 c 9.242 44.797 l 8.801 44.797 8.734 44.797 8.734 45.082 c 
h
8.734 49.203 m f*
12.504 46.352 m 12.504 46.543 l 12.496 46.602 l 12.496 46.656 l 12.484 
46.688 l 12.484 46.735 l 12.477 46.762 l 12.469 46.793 l 12.469 46.82 l 
12.457 46.84 l 12.449 46.867 l 12.438 46.899 l 12.43 46.918 l 12.418 46.945
 l 12.398 46.973 l 12.391 46.992 l 12.371 47.024 l 12.352 47.043 l 12.344
 47.07 l 12.324 47.09 l 12.293 47.11 l 12.273 47.137 l 12.246 47.156 l 12.227
 47.184 l 12.199 47.203 l 11.918 47.434 11.602 47.539 11.211 47.539 c 10.566
 47.539 10.113 47.301 10.113 46.887 c 10.113 46.676 10.27 46.563 10.441 
46.563 c 10.625 46.563 10.758 46.695 10.758 46.879 c 10.758 46.992 10.699
 47.137 10.52 47.184 c 10.758 47.348 11.152 47.348 11.191 47.348 c 11.566
 47.348 11.977 47.11 11.977 46.543 c 11.977 45.496 l 11.977 44.852 11.41
 44.68 11.113 44.68 c 10.77 44.68 10.449 44.903 10.449 45.227 c 10.449 45.602
 10.77 46.121 11.977 46.16 c 11.977 46.332 l 11.602 46.32 11.16 46.301 10.672
 46.121 c 10.078 45.899 9.883 45.535 9.883 45.227 c 9.883 44.653 10.586 
44.488 11.055 44.488 c 11.594 44.488 11.91 44.785 12.043 45.055 c 12.074
 44.778 12.254 44.516 12.562 44.516 c 12.574 44.516 13.227 44.516 13.227
 45.16 c 13.227 45.524 l 12.996 45.524 l 12.996 45.168 l 12.996 45.102 12.996
 44.778 12.754 44.778 c 12.504 44.778 12.504 45.094 12.504 45.18 c h
12.504 46.352 m f*
84.707 18.926 m 84.676 19.176 l 84.676 21.758 l 84.676 22.074 84.695 22.141
 85.148 22.141 c 86.004 22.141 l 87.52 22.141 87.52 21.125 87.52 20.653 
c 87.52 20.211 87.52 19.176 86.004 19.176 c 84.676 19.176 l 84.707 18.926
 l 86.32 18.926 l 87.473 18.926 88.508 19.703 88.508 20.653 c 88.508 21.594
 87.559 22.442 86.25 22.442 c 82.871 22.442 l 82.871 22.141 l 83.102 22.141
 l 83.844 22.141 83.863 22.035 83.863 21.692 c 83.863 16.653 l 83.863 16.305
 83.844 16.199 83.102 16.199 c 82.871 16.199 l 82.871 15.903 l 83.207 15.93
 83.918 15.93 84.273 15.93 c 84.641 15.93 85.359 15.93 85.695 15.903 c 85.695
 16.199 l 85.465 16.199 l 84.727 16.199 84.707 16.305 84.707 16.653 c h
84.707 18.926 m f*
89.383 22.442 m 89.383 22.141 l 89.613 22.141 l 90.352 22.141 90.371 22.035
 90.371 21.692 c 90.371 16.653 l 90.371 16.305 90.352 16.199 89.613 16.199
 c 89.383 16.199 l 89.383 15.903 l 92.887 15.903 l 92.625 16.199 l 91.656
 16.199 l 91.207 16.199 91.188 16.266 91.188 16.582 c 91.188 21.758 l 91.188
 22.074 91.207 22.141 91.656 22.141 c 92.617 22.141 l 93.203 22.141 93.863
 21.93 94.355 21.25 c 94.766 20.684 94.852 19.867 94.852 19.117 c 94.852
 18.051 94.672 17.485 94.324 17.016 c 94.133 16.758 93.586 16.199 92.625
 16.199 c 92.887 15.903 l 94.488 15.903 95.805 17.324 95.805 19.117 c 95.805
 20.934 94.516 22.442 92.887 22.442 c h
89.383 22.442 m f*
97.656 16.653 m 97.656 16.563 l 97.648 16.535 l 97.648 16.457 l 97.637 
16.442 l 97.637 16.41 l 97.629 16.391 l 97.617 16.371 l 97.609 16.352 l 
97.598 16.344 l 97.578 16.324 l 97.57 16.305 l 97.551 16.297 l 97.531 16.285
 l 97.512 16.278 l 97.504 16.266 l 97.484 16.258 l 97.473 16.258 l 97.465
 16.246 l 97.438 16.246 l 97.418 16.238 l 97.398 16.238 l 97.387 16.227 
l 97.348 16.227 l 97.332 16.219 l 97.262 16.219 l 97.242 16.211 l 97.117
 16.211 l 97.09 16.199 l 96.668 16.199 l 96.668 15.903 l 102.188 15.903 
l 102.59 18.367 l 102.352 18.367 l 102.109 16.899 101.891 16.199 100.25 
16.199 c 98.973 16.199 l 98.52 16.199 98.5 16.266 98.5 16.582 c 98.5 19.137
 l 99.367 19.137 l 100.297 19.137 100.402 18.828 100.402 18.016 c 100.641
 18.016 l 100.641 20.547 l 100.402 20.547 l 100.402 19.731 100.297 19.434
 99.367 19.434 c 98.5 19.434 l 98.5 21.731 l 98.5 22.047 98.52 22.113 98.973
 22.113 c 100.211 22.113 l 101.668 22.113 101.93 21.586 102.082 20.262 c
 102.32 20.262 l 102.055 22.41 l 96.668 22.41 l 96.668 22.113 l 96.898 22.113
 l 97.637 22.113 97.656 22.008 97.656 21.66 c h
97.656 16.653 m f*
114.727 64.672 m 114.727 64.699 l 114.715 64.711 l 114.715 64.719 l 114.707
 64.719 l 114.707 64.731 l 114.695 64.738 l 114.688 64.75 l 114.676 64.75
 l 114.676 64.758 l 114.648 64.758 l 114.648 64.77 l 114.629 64.77 l 114.523
 64.77 114.141 64.383 113.984 64.106 c 113.773 64.625 113.398 64.778 113.094
 64.778 c 113.094 64.567 l 113.719 64.567 113.852 63.789 113.852 63.723 
c 113.852 63.664 113.324 61.57 113.293 61.531 c 113.152 61.266 112.613 60.649
 112.074 60.649 c 111.508 60.649 111.469 61.391 111.469 61.551 c 111.469
 62.012 111.738 63.051 111.902 63.453 c 112.199 64.164 112.699 64.567 113.094
 64.567 c 113.094 64.778 l 111.961 64.778 110.789 63.356 110.789 61.977 
c 110.789 61.035 111.355 60.438 112.047 60.438 c 112.461 60.438 112.832 
60.668 113.18 61.016 c 113.094 60.68 112.777 59.391 112.746 59.305 c 112.672
 59.035 112.594 59 112.055 58.988 c 111.93 58.988 111.836 58.988 111.836
 58.797 c 111.836 58.789 111.836 58.692 111.961 58.692 c 112.266 58.692 
112.602 58.719 112.922 58.719 c 113.246 58.719 113.594 58.692 113.91 58.692
 c 113.957 58.692 114.082 58.692 114.082 58.883 c 114.082 58.988 113.984
 58.988 113.832 58.988 c 113.371 58.988 113.371 59.055 113.371 59.145 c 
113.371 59.211 113.391 59.266 113.41 59.356 c h
114.727 64.672 m f*
116.051 63.762 m 115.051 63.684 l 115.051 63.445 l 115.492 63.445 115.551
 63.395 115.551 63.07 c 115.551 59.641 l 115.551 59.356 115.484 59.356 115.051
 59.356 c 115.051 59.113 l 115.062 59.113 115.531 59.145 115.801 59.145 
c 116.051 59.145 116.301 59.133 116.559 59.113 c 116.559 59.356 l 116.117
 59.356 116.051 59.356 116.051 59.641 c h
116.051 63.762 m f*
120.016 61.34 m 120.023 61.36 l 120.035 61.379 l 120.043 61.399 l 120.055
 61.418 l 120.062 61.426 l 120.07 61.445 l 120.09 61.477 l 120.129 61.531
 l 120.16 61.563 l 120.176 61.582 l 120.195 61.602 l 120.227 61.621 l 120.246
 61.641 l 120.266 61.656 l 120.293 61.668 l 120.312 61.688 l 120.34 61.695
 l 120.359 61.707 l 120.379 61.715 l 120.406 61.727 l 120.426 61.727 l 120.445
 61.735 l 120.465 61.746 l 120.504 61.746 l 120.523 61.754 l 120.629 61.754
 l 120.648 61.762 l 120.648 62.004 l 120.477 61.985 120.301 61.977 120.141
 61.977 c 119.957 61.977 119.707 61.977 119.523 62.004 c 119.523 61.762 
l 119.805 61.746 119.805 61.524 119.805 61.504 c 119.805 61.477 119.805 
61.41 119.754 61.313 c 118.996 59.66 l 118.172 61.477 l 118.172 61.485 118.125
 61.551 118.125 61.602 c 118.125 61.762 118.355 61.762 118.469 61.762 c 
118.469 62.004 l 118.461 62.004 117.98 61.977 117.711 61.977 c 117.5 61.977
 117.238 61.977 117.047 62.004 c 117.047 61.762 l 117.414 61.762 117.5 61.746
 117.594 61.516 c 118.652 59.192 l 118.691 59.106 118.727 59.047 118.844
 59.047 c 118.969 59.047 118.996 59.106 119.035 59.18 c h
120.016 61.34 m f*
204.98 44.824 m 204.973 44.797 l 204.961 44.766 l 204.961 44.738 l 204.953
 44.707 l 204.941 44.692 l 204.941 44.66 l 204.926 44.621 l 204.914 44.602
 l 204.914 44.582 l 204.906 44.567 l 204.895 44.555 l 204.887 44.535 l 204.875
 44.528 l 204.867 44.516 l 204.848 44.508 l 204.828 44.488 l 204.809 44.477
 l 204.77 44.461 l 204.75 44.461 l 204.73 44.449 l 204.715 44.449 l 204.684
 44.442 l 204.645 44.442 l 204.637 44.43 l 204.465 44.43 l 204.348 44.43
 204.242 44.43 204.242 44.246 c 204.242 44.172 204.289 44.133 204.367 44.133
 c 204.625 44.133 204.906 44.16 205.172 44.16 c 205.492 44.16 205.809 44.133
 206.113 44.133 c 206.164 44.133 206.289 44.133 206.289 44.324 c 206.289
 44.43 206.191 44.43 206.059 44.43 c 205.586 44.43 205.586 44.496 205.586
 44.582 c 205.586 44.699 205.98 46.254 206.047 46.496 c 206.172 46.215 206.441
 45.879 206.93 45.879 c 206.922 46.09 l 206.289 46.09 206.164 46.887 206.164
 46.945 c 206.164 46.965 206.164 46.985 206.191 47.098 c 206.66 48.973 l
 206.73 49.231 206.988 49.5 207.16 49.645 c 207.496 49.942 207.773 50.008
 207.938 50.008 c 208.312 50.008 208.543 49.672 208.543 49.106 c 208.543
 48.539 208.234 47.445 208.062 47.078 c 207.738 46.406 207.277 46.09 206.922
 46.09 c 206.93 45.879 l 208.043 45.879 209.234 47.281 209.234 48.684 c 
209.234 49.586 208.688 50.219 207.969 50.219 c 207.488 50.219 207.027 49.875
 206.711 49.5 c 206.613 50.016 206.199 50.219 205.855 50.219 c 205.414 50.219
 205.23 49.844 205.145 49.672 c 204.973 49.344 204.848 48.77 204.848 48.742
 c 204.848 48.645 204.941 48.645 204.961 48.645 c 205.059 48.645 205.066
 48.653 205.125 48.867 c 205.289 49.547 205.48 50.008 205.828 50.008 c 205.98
 50.008 206.113 49.93 206.113 49.567 c 206.113 49.344 206.086 49.238 206.047
 49.078 c h
204.98 44.824 m f*
212.355 46.352 m 212.355 46.543 l 212.344 46.602 l 212.344 46.656 l 212.336
 46.688 l 212.336 46.735 l 212.324 46.762 l 212.316 46.793 l 212.316 46.82
 l 212.305 46.84 l 212.297 46.867 l 212.289 46.899 l 212.277 46.918 l 212.27
 46.945 l 212.25 46.973 l 212.238 46.992 l 212.219 47.024 l 212.199 47.043
 l 212.191 47.07 l 212.172 47.09 l 212.145 47.11 l 212.125 47.137 l 212.094
 47.156 l 212.074 47.184 l 212.047 47.203 l 211.77 47.434 211.453 47.539
 211.059 47.539 c 210.414 47.539 209.965 47.301 209.965 46.887 c 209.965
 46.676 210.117 46.563 210.289 46.563 c 210.473 46.563 210.605 46.695 210.605
 46.879 c 210.605 46.992 210.551 47.137 210.367 47.184 c 210.605 47.348 
211 47.348 211.039 47.348 c 211.414 47.348 211.828 47.11 211.828 46.543 
c 211.828 45.496 l 211.828 44.852 211.262 44.68 210.961 44.68 c 210.617 
44.68 210.301 44.903 210.301 45.227 c 210.301 45.602 210.617 46.121 211.828
 46.16 c 211.828 46.332 l 211.453 46.32 211.012 46.301 210.52 46.121 c 209.926
 45.899 209.734 45.535 209.734 45.227 c 209.734 44.653 210.434 44.488 210.906
 44.488 c 211.441 44.488 211.758 44.785 211.895 45.055 c 211.922 44.778 
212.105 44.516 212.41 44.516 c 212.422 44.516 213.074 44.516 213.074 45.16
 c 213.074 45.524 l 212.844 45.524 l 212.844 45.168 l 212.844 45.102 212.844
 44.778 212.605 44.778 c 212.355 44.778 212.355 45.094 212.355 45.18 c h
212.355 46.352 m f*
216.715 45.977 m 216.715 46.141 l 216.695 46.215 l 216.684 46.293 l 216.664
 46.36 l 216.645 46.438 l 216.617 46.504 l 216.59 46.582 l 216.559 46.649
 l 216.52 46.715 l 216.484 46.781 l 216.445 46.84 l 216.395 46.906 l 216.301
 47.024 l 216.242 47.07 l 216.184 47.129 l 216.129 47.176 l 216.07 47.223
 l 216.004 47.274 l 215.934 47.309 l 215.867 47.348 l 215.793 47.387 l 215.723
 47.414 l 215.648 47.445 l 215.57 47.465 l 215.492 47.492 l 215.418 47.512
 l 215.332 47.524 l 215.242 47.531 l 215.168 47.539 l 215.082 47.539 l 215.082
 47.348 l 215.473 47.348 215.754 47.168 215.898 46.957 c 216.09 46.695 216.109
 46.36 216.109 46.043 c 216.109 45.715 216.09 45.363 215.898 45.094 c 215.715
 44.832 215.406 44.699 215.082 44.699 c 214.832 44.699 214.465 44.785 214.246
 45.113 c 214.062 45.379 214.043 45.735 214.043 46.043 c 214.043 46.332 
214.055 46.727 214.285 47.012 c 214.457 47.203 214.734 47.348 215.082 47.348
 c 215.082 47.539 l 214.148 47.539 213.438 46.82 213.438 45.977 c 213.438
 45.149 214.168 44.488 215.082 44.488 c 215.984 44.488 216.715 45.149 216.715
 45.977 c h
216.715 45.977 m f*
253.652 50.559 m 253.652 50.59 l 253.641 50.59 l 253.641 50.61 l 253.633
 50.61 l 253.633 50.617 l 253.613 50.637 l 253.602 50.637 l 253.594 50.645
 l 253.566 50.645 l 253.566 50.656 l 253.547 50.656 l 253.516 50.656 253.508
 50.645 253.402 50.539 c 252.73 49.801 l 252.652 49.938 252.211 50.656 251.145
 50.656 c 249.016 50.656 246.863 48.535 246.863 46.317 c 246.863 44.742 
247.988 43.695 249.457 43.695 c 250.281 43.695 251.012 44.078 251.52 44.524
 c 252.414 45.309 252.574 46.172 252.574 46.203 c 252.574 46.297 252.48 
46.297 252.461 46.297 c 252.402 46.297 252.355 46.278 252.336 46.203 c 252.25
 45.922 252.027 45.25 251.367 44.695 c 250.703 44.156 250.109 43.992 249.609
 43.992 c 248.746 43.992 247.738 44.492 247.738 45.981 c 247.738 46.528 
247.93 48.082 248.891 49.195 c 249.477 49.879 250.367 50.36 251.223 50.36
 c 252.203 50.36 252.758 49.617 252.758 48.504 c 252.758 48.133 252.73 48.121
 252.73 48.028 c 252.73 47.93 252.836 47.93 252.883 47.93 c 253 47.93 253
 47.949 253.047 48.121 c h
253.652 50.559 m f*
294.277 47.266 m 294.375 47.285 l 294.461 47.317 l 294.555 47.336 l 294.641
 47.363 l 294.738 47.403 l 294.836 47.43 l 294.922 47.469 l 295.016 47.508
 l 295.102 47.547 l 295.188 47.594 l 295.285 47.641 l 295.371 47.692 l 295.449
 47.738 l 295.535 47.797 l 295.613 47.852 l 295.688 47.91 l 295.844 48.028
 l 295.91 48.094 l 295.969 48.16 l 296.035 48.227 l 296.09 48.293 l 296.141
 48.371 l 296.188 48.449 l 296.234 48.524 l 296.273 48.602 l 296.305 48.68
 l 296.332 48.766 l 296.371 48.938 l 296.379 49.024 l 296.379 49.11 l 296.379
 49.938 295.523 50.551 294.27 50.551 c 291.543 50.551 l 291.348 50.551 291.262
 50.551 291.262 50.36 c 291.262 50.254 291.348 50.254 291.531 50.254 c 291.551
 50.254 291.734 50.254 291.898 50.235 c 292.07 50.215 292.156 50.203 292.156
 50.078 c 292.156 50.043 292.145 50.012 292.117 49.899 c 290.832 44.762 
l 290.734 44.387 290.715 44.309 289.969 44.309 c 289.793 44.309 289.707 
44.309 289.707 44.117 c 289.707 44.012 289.824 44.012 289.844 44.012 c 290.109
 44.012 290.773 44.043 291.043 44.043 c 291.312 44.043 291.992 44.012 292.262
 44.012 c 292.34 44.012 292.453 44.012 292.453 44.203 c 292.453 44.309 292.367
 44.309 292.184 44.309 c 291.828 44.309 291.562 44.309 291.562 44.485 c 
291.562 44.539 291.578 44.59 291.59 44.645 c 292.223 47.18 l 293.355 47.18
 l 293.348 47.391 l 292.281 47.391 l 292.906 49.887 l 292.961 50.117 292.992
 50.215 293.172 50.242 c 293.258 50.254 293.559 50.254 293.75 50.254 c 294.43
 50.254 295.496 50.254 295.496 49.301 c 295.496 48.977 295.344 48.324 294.969
 47.949 c 294.719 47.699 294.211 47.391 293.348 47.391 c 293.355 47.18 l
 294.23 47.18 294.402 46.645 294.402 46.309 c 294.402 46.164 294.324 45.867
 294.27 45.653 c 294.199 45.387 294.113 45.031 294.113 44.84 c 294.113 43.801
 295.266 43.801 295.391 43.801 c 296.199 43.801 296.535 44.77 296.535 44.906
 c 296.535 45.02 296.43 45.02 296.418 45.02 c 296.332 45.02 296.312 44.953
 296.293 44.887 c 296.055 44.176 295.641 44.012 295.43 44.012 c 295.113 
44.012 295.047 44.223 295.047 44.598 c 295.047 44.895 295.102 45.387 295.141
 45.692 c 295.16 45.828 295.18 46.008 295.18 46.133 c 295.18 46.875 294.535
 47.172 294.277 47.266 c h
294.277 47.266 m f*
149.762 44.824 m 149.75 44.797 l 149.742 44.766 l 149.742 44.738 l 149.73
 44.707 l 149.723 44.692 l 149.723 44.66 l 149.711 44.641 l 149.695 44.602
 l 149.695 44.582 l 149.684 44.567 l 149.676 44.555 l 149.664 44.535 l 149.645
 44.516 l 149.625 44.508 l 149.617 44.496 l 149.605 44.488 l 149.59 44.477
 l 149.551 44.461 l 149.531 44.461 l 149.512 44.449 l 149.492 44.449 l 149.465
 44.442 l 149.426 44.442 l 149.414 44.43 l 149.242 44.43 l 149.129 44.43
 149.023 44.43 149.023 44.246 c 149.023 44.172 149.07 44.133 149.145 44.133
 c 149.406 44.133 149.684 44.16 149.953 44.16 c 150.27 44.16 150.586 44.133
 150.895 44.133 c 150.941 44.133 151.066 44.133 151.066 44.324 c 151.066
 44.43 150.969 44.43 150.836 44.43 c 150.367 44.43 150.367 44.496 150.367
 44.582 c 150.367 44.699 150.758 46.254 150.828 46.496 c 150.949 46.215 
151.219 45.879 151.711 45.879 c 151.699 46.09 l 151.066 46.09 150.941 46.887
 150.941 46.945 c 150.941 46.965 150.941 46.985 150.969 47.098 c 151.441
 48.973 l 151.508 49.231 151.766 49.5 151.941 49.645 c 152.277 49.942 152.555
 50.008 152.719 50.008 c 153.094 50.008 153.324 49.672 153.324 49.106 c 
153.324 48.539 153.016 47.445 152.844 47.078 c 152.516 46.406 152.055 46.09
 151.699 46.09 c 151.711 45.879 l 152.824 45.879 154.012 47.281 154.012 
48.684 c 154.012 49.586 153.465 50.219 152.746 50.219 c 152.266 50.219 151.805
 49.875 151.488 49.5 c 151.395 50.016 150.98 50.219 150.633 50.219 c 150.191
 50.219 150.012 49.844 149.926 49.672 c 149.75 49.344 149.625 48.77 149.625
 48.742 c 149.625 48.645 149.723 48.645 149.742 48.645 c 149.836 48.645 
149.848 48.653 149.906 48.867 c 150.066 49.547 150.262 50.008 150.605 50.008
 c 150.758 50.008 150.895 49.93 150.895 49.567 c 150.895 49.344 150.863 
49.238 150.828 49.078 c h
149.762 44.824 m f*
155.52 49.203 m 154.523 49.125 l 154.523 48.883 l 154.973 48.883 155.023
 48.836 155.023 48.512 c 155.023 45.082 l 155.023 44.797 154.953 44.797 
154.523 44.797 c 154.523 44.555 l 154.531 44.555 155.004 44.582 155.27 44.582
 c 155.52 44.582 155.77 44.574 156.031 44.555 c 156.031 44.797 l 155.59 
44.797 155.52 44.797 155.52 45.082 c h
155.52 49.203 m f*
159.477 46.781 m 159.484 46.801 l 159.496 46.82 l 159.504 46.84 l 159.516
 46.86 l 159.523 46.867 l 159.535 46.887 l 159.555 46.918 l 159.57 46.945
 l 159.602 46.973 l 159.621 47.004 l 159.641 47.024 l 159.668 47.043 l 159.688
 47.063 l 159.707 47.078 l 159.734 47.098 l 159.754 47.11 l 159.773 47.129
 l 159.801 47.137 l 159.82 47.149 l 159.852 47.156 l 159.871 47.168 l 159.891
 47.168 l 159.906 47.176 l 159.938 47.184 l 159.977 47.184 l 159.996 47.195
 l 160.102 47.195 l 160.109 47.203 l 160.109 47.445 l 159.938 47.426 159.766
 47.414 159.602 47.414 c 159.418 47.414 159.168 47.414 158.988 47.445 c 
158.988 47.203 l 159.273 47.184 159.273 46.965 159.273 46.945 c 159.273 
46.918 159.266 46.848 159.215 46.754 c 158.457 45.102 l 157.633 46.918 l
 157.633 46.926 157.594 46.992 157.594 47.043 c 157.594 47.203 157.816 47.203
 157.93 47.203 c 157.93 47.445 l 157.922 47.445 157.441 47.414 157.172 47.414
 c 156.969 47.414 156.711 47.414 156.508 47.445 c 156.508 47.203 l 156.883
 47.203 156.961 47.184 157.066 46.957 c 158.121 44.633 l 158.152 44.547 
158.191 44.488 158.305 44.488 c 158.438 44.488 158.457 44.547 158.496 44.621
 c h
159.477 46.781 m f*
154.922 95.586 2.535 -0.547 re f*
162.332 97.371 m 162.332 97.379 l 162.324 97.379 l 162.324 97.41 l 162.312
 97.41 l 162.312 97.43 l 162.305 97.43 l 162.305 97.438 l 162.293 97.438
 l 162.285 97.449 l 162.273 97.457 l 162.246 97.457 l 162.246 97.469 l 162.234
 97.469 l 162.129 97.469 161.746 97.082 161.582 96.805 c 161.371 97.324 
160.996 97.477 160.691 97.477 c 160.691 97.266 l 161.316 97.266 161.449 
96.488 161.449 96.422 c 161.449 96.363 160.922 94.27 160.891 94.231 c 160.75
 93.965 160.211 93.348 159.684 93.348 c 159.105 93.348 159.066 94.086 159.066
 94.25 c 159.066 94.711 159.348 95.75 159.508 96.153 c 159.797 96.863 160.297
 97.266 160.691 97.266 c 160.691 97.477 l 159.566 97.477 158.387 96.055 
158.387 94.672 c 158.387 93.735 158.953 93.137 159.652 93.137 c 160.059 
93.137 160.43 93.367 160.777 93.715 c 160.691 93.379 160.375 92.09 160.344
 92.004 c 160.27 91.735 160.191 91.699 159.664 91.688 c 159.539 91.688 159.441
 91.688 159.441 91.496 c 159.441 91.485 159.441 91.391 159.566 91.391 c 
159.875 91.391 160.199 91.418 160.52 91.418 c 160.844 91.418 161.191 91.391
 161.508 91.391 c 161.555 91.391 161.68 91.391 161.68 91.582 c 161.68 91.688
 161.582 91.688 161.43 91.688 c 160.969 91.688 160.969 91.754 160.969 91.84
 c 160.969 91.91 160.988 91.965 161.008 92.051 c h
162.332 97.371 m f*
163.656 96.461 m 162.648 96.383 l 162.648 96.141 l 163.102 96.141 163.148
 96.094 163.148 95.77 c 163.148 92.34 l 163.148 92.051 163.082 92.051 162.648
 92.051 c 162.648 91.813 l 162.66 91.813 163.129 91.84 163.398 91.84 c 163.656
 91.84 163.906 91.832 164.156 91.813 c 164.156 92.051 l 163.723 92.051 163.656
 92.051 163.656 92.34 c h
163.656 96.461 m f*
167.613 94.039 m 167.621 94.059 l 167.633 94.078 l 167.641 94.098 l 167.652
 94.117 l 167.66 94.125 l 167.668 94.145 l 167.688 94.176 l 167.707 94.203
 l 167.738 94.231 l 167.758 94.262 l 167.773 94.281 l 167.805 94.301 l 167.824
 94.317 l 167.844 94.336 l 167.871 94.356 l 167.891 94.367 l 167.91 94.387
 l 167.938 94.395 l 167.957 94.406 l 167.988 94.414 l 168.004 94.426 l 168.023
 94.426 l 168.043 94.434 l 168.074 94.442 l 168.109 94.442 l 168.129 94.453
 l 168.234 94.453 l 168.246 94.461 l 168.246 94.703 l 168.074 94.684 167.898
 94.672 167.738 94.672 c 167.555 94.672 167.305 94.672 167.121 94.703 c 
167.121 94.461 l 167.41 94.442 167.41 94.223 167.41 94.203 c 167.41 94.176
 167.402 94.106 167.352 94.012 c 166.594 92.36 l 165.77 94.176 l 165.77 
94.184 165.73 94.25 165.73 94.301 c 165.73 94.461 165.953 94.461 166.066
 94.461 c 166.066 94.703 l 166.059 94.703 165.578 94.672 165.309 94.672 
c 165.105 94.672 164.848 94.672 164.645 94.703 c 164.645 94.461 l 165.02
 94.461 165.098 94.442 165.203 94.211 c 166.258 91.891 l 166.289 91.805 
166.324 91.746 166.441 91.746 c 166.574 91.746 166.594 91.805 166.633 91.879
 c h
167.613 94.039 m f*
54.746 95.973 2.535 -0.547 re f*
62.156 97.758 m 62.156 97.766 l 62.148 97.766 l 62.148 97.797 l 62.137 
97.797 l 62.137 97.813 l 62.129 97.813 l 62.129 97.824 l 62.121 97.824 l
 62.109 97.832 l 62.102 97.844 l 62.07 97.844 l 62.07 97.852 l 62.062 97.852
 l 61.957 97.852 61.57 97.469 61.41 97.192 c 61.199 97.707 60.824 97.863
 60.516 97.863 c 60.516 97.653 l 61.141 97.653 61.273 96.875 61.273 96.805
 c 61.273 96.75 60.746 94.656 60.719 94.617 c 60.574 94.348 60.035 93.735
 59.508 93.735 c 58.934 93.735 58.895 94.473 58.895 94.637 c 58.895 95.098
 59.172 96.133 59.336 96.539 c 59.625 97.246 60.121 97.653 60.516 97.653
 c 60.516 97.863 l 59.395 97.863 58.211 96.442 58.211 95.059 c 58.211 94.117
 58.777 93.524 59.48 93.524 c 59.883 93.524 60.258 93.754 60.602 94.098 
c 60.516 93.762 60.199 92.477 60.172 92.391 c 60.094 92.121 60.016 92.082
 59.488 92.074 c 59.363 92.074 59.27 92.074 59.27 91.883 c 59.27 91.871 
59.27 91.778 59.395 91.778 c 59.699 91.778 60.027 91.805 60.344 91.805 c
 60.668 91.805 61.016 91.778 61.332 91.778 c 61.379 91.778 61.504 91.778
 61.504 91.969 c 61.504 92.074 61.41 92.074 61.254 92.074 c 60.793 92.074
 60.793 92.141 60.793 92.227 c 60.793 92.293 60.812 92.352 60.832 92.438
 c h
62.156 97.758 m f*
63.48 96.844 m 62.473 96.77 l 62.473 96.528 l 62.926 96.528 62.973 96.481
 62.973 96.153 c 62.973 92.727 l 62.973 92.438 62.906 92.438 62.473 92.438
 c 62.473 92.199 l 62.484 92.199 62.953 92.227 63.223 92.227 c 63.48 92.227
 63.73 92.219 63.98 92.199 c 63.98 92.438 l 63.551 92.438 63.48 92.438 63.48
 92.727 c h
63.48 96.844 m f*
67.254 93.992 m 67.254 94.184 l 67.246 94.242 l 67.246 94.301 l 67.234 
94.328 l 67.234 94.379 l 67.227 94.406 l 67.215 94.434 l 67.215 94.465 l
 67.207 94.485 l 67.199 94.512 l 67.188 94.539 l 67.18 94.559 l 67.168 94.59
 l 67.148 94.617 l 67.141 94.637 l 67.121 94.664 l 67.102 94.684 l 67.094
 94.715 l 67.074 94.735 l 67.043 94.75 l 67.023 94.781 l 66.996 94.801 l
 66.977 94.828 l 66.949 94.848 l 66.668 95.078 66.352 95.184 65.949 95.184
 c 65.316 95.184 64.875 94.945 64.875 94.531 c 64.875 94.32 65.02 94.203
 65.191 94.203 c 65.375 94.203 65.508 94.34 65.508 94.52 c 65.508 94.637
 65.449 94.781 65.27 94.828 c 65.52 94.992 65.902 94.992 65.941 94.992 c
 66.312 94.992 66.727 94.75 66.727 94.184 c 66.727 93.141 l 66.727 92.496
 66.16 92.324 65.863 92.324 c 65.52 92.324 65.199 92.543 65.199 92.871 c
 65.199 93.246 65.52 93.762 66.727 93.801 c 66.727 93.973 l 66.352 93.965
 65.91 93.945 65.422 93.762 c 64.828 93.543 64.633 93.176 64.633 92.871 
c 64.633 92.293 65.336 92.133 65.805 92.133 c 66.344 92.133 66.66 92.43 
66.793 92.699 c 66.824 92.418 67.004 92.16 67.312 92.16 c 67.332 92.16 67.977
 92.16 67.977 92.805 c 67.977 93.168 l 67.746 93.168 l 67.746 92.813 l 67.746
 92.746 67.746 92.418 67.504 92.418 c 67.254 92.418 67.254 92.735 67.254
 92.82 c h
67.254 93.992 m f*
178.402 73.203 m 178.496 73.223 l 178.586 73.25 l 178.68 73.27 l 178.766
 73.301 l 178.863 73.34 l 178.957 73.367 l 179.047 73.406 l 179.141 73.445
 l 179.227 73.481 l 179.312 73.531 l 179.41 73.578 l 179.496 73.625 l 179.574
 73.676 l 179.66 73.731 l 179.738 73.789 l 179.812 73.848 l 179.891 73.906
 l 179.965 73.961 l 180.035 74.028 l 180.09 74.098 l 180.16 74.164 l 180.215
 74.231 l 180.266 74.309 l 180.312 74.383 l 180.359 74.461 l 180.398 74.539
 l 180.426 74.613 l 180.457 74.703 l 180.496 74.875 l 180.504 74.961 l 180.504
 75.047 l 180.504 75.871 179.648 76.488 178.391 76.488 c 175.664 76.488 
l 175.473 76.488 175.387 76.488 175.387 76.293 c 175.387 76.188 175.473 
76.188 175.656 76.188 c 175.676 76.188 175.859 76.188 176.02 76.172 c 176.195
 76.153 176.281 76.141 176.281 76.016 c 176.281 75.977 176.27 75.949 176.242
 75.836 c 174.957 70.699 l 174.859 70.324 174.84 70.246 174.09 70.246 c 
173.918 70.246 173.832 70.246 173.832 70.055 c 173.832 69.949 173.949 69.949
 173.965 69.949 c 174.234 69.949 174.898 69.977 175.168 69.977 c 175.434
 69.977 176.117 69.949 176.387 69.949 c 176.461 69.949 176.578 69.949 176.578
 70.141 c 176.578 70.246 176.492 70.246 176.309 70.246 c 175.953 70.246 
175.684 70.246 175.684 70.418 c 175.684 70.477 175.703 70.524 175.715 70.582
 c 176.348 73.117 l 177.48 73.117 l 177.473 73.328 l 176.406 73.328 l 177.027
 75.824 l 177.086 76.055 177.117 76.153 177.297 76.18 c 177.383 76.188 177.684
 76.188 177.875 76.188 c 178.555 76.188 179.621 76.188 179.621 75.238 c 
179.621 74.914 179.469 74.258 179.094 73.887 c 178.844 73.637 178.336 73.328
 177.473 73.328 c 177.48 73.117 l 178.355 73.117 178.527 72.578 178.527 
72.242 c 178.527 72.102 178.449 71.801 178.391 71.59 c 178.324 71.32 178.238
 70.969 178.238 70.774 c 178.238 69.738 179.391 69.738 179.516 69.738 c 
180.32 69.738 180.656 70.707 180.656 70.844 c 180.656 70.957 180.551 70.957
 180.543 70.957 c 180.457 70.957 180.438 70.891 180.418 70.824 c 180.18 
70.113 179.766 69.949 179.555 69.949 c 179.238 69.949 179.172 70.16 179.172
 70.535 c 179.172 70.832 179.227 71.32 179.266 71.629 c 179.285 71.766 179.305
 71.945 179.305 72.07 c 179.305 72.809 178.66 73.11 178.402 73.203 c h
178.402 73.203 m f*
183.691 70.313 m 183.691 70.508 l 183.684 70.563 l 183.684 70.621 l 183.672
 70.649 l 183.672 70.699 l 183.664 70.727 l 183.652 70.754 l 183.652 70.785
 l 183.645 70.805 l 183.633 70.832 l 183.625 70.86 l 183.613 70.879 l 183.605
 70.91 l 183.586 70.938 l 183.578 70.957 l 183.559 70.985 l 183.539 71.004
 l 183.527 71.035 l 183.508 71.055 l 183.48 71.074 l 183.461 71.102 l 183.434
 71.121 l 183.414 71.149 l 183.383 71.168 l 183.105 71.399 182.789 71.504
 182.395 71.504 c 181.754 71.504 181.301 71.266 181.301 70.852 c 181.301
 70.641 181.453 70.524 181.629 70.524 c 181.809 70.524 181.945 70.66 181.945
 70.844 c 181.945 70.957 181.887 71.102 181.703 71.149 c 181.945 71.313 
182.34 71.313 182.375 71.313 c 182.75 71.313 183.164 71.074 183.164 70.508
 c 183.164 69.461 l 183.164 68.817 182.598 68.645 182.301 68.645 c 181.953
 68.645 181.637 68.863 181.637 69.192 c 181.637 69.567 181.953 70.082 183.164
 70.121 c 183.164 70.293 l 182.789 70.285 182.348 70.266 181.859 70.082 
c 181.262 69.863 181.07 69.5 181.07 69.192 c 181.07 68.613 181.773 68.453
 182.242 68.453 c 182.781 68.453 183.098 68.75 183.23 69.02 c 183.258 68.738
 183.441 68.481 183.75 68.481 c 183.758 68.481 184.41 68.481 184.41 69.125
 c 184.41 69.488 l 184.18 69.488 l 184.18 69.133 l 184.18 69.067 184.18 
68.738 183.941 68.738 c 183.691 68.738 183.691 69.055 183.691 69.145 c h
183.691 70.313 m f*
187.484 70.746 m 187.492 70.766 l 187.504 70.785 l 187.512 70.805 l 187.523
 70.824 l 187.531 70.832 l 187.543 70.852 l 187.559 70.879 l 187.578 70.91
 l 187.598 70.938 l 187.629 70.969 l 187.648 70.985 l 187.664 71.004 l 187.695
 71.024 l 187.734 71.063 l 187.762 71.074 l 187.781 71.09 l 187.809 71.102
 l 187.828 71.11 l 187.848 71.121 l 187.879 71.129 l 187.895 71.129 l 187.914
 71.141 l 187.934 71.149 l 187.973 71.149 l 187.992 71.16 l 188.098 71.16
 l 188.117 71.168 l 188.117 71.41 l 187.945 71.391 187.773 71.379 187.609
 71.379 c 187.426 71.379 187.176 71.379 186.992 71.41 c 186.992 71.168 l
 187.273 71.149 187.273 70.93 187.273 70.91 c 187.273 70.879 187.273 70.813
 187.223 70.719 c 186.465 69.067 l 185.641 70.879 l 185.641 70.891 185.594
 70.957 185.594 71.004 c 185.594 71.168 185.824 71.168 185.938 71.168 c 
185.938 71.41 l 185.93 71.41 185.449 71.379 185.172 71.379 c 184.977 71.379
 184.711 71.379 184.516 71.41 c 184.516 71.168 l 184.883 71.168 184.969 
71.149 185.062 70.918 c 186.129 68.594 l 186.16 68.508 186.195 68.453 186.312
 68.453 c 186.438 68.453 186.465 68.508 186.504 68.586 c h
187.484 70.746 m f*
37.316 73.074 m 37.41 73.09 l 37.496 73.121 l 37.594 73.141 l 37.68 73.168
 l 37.773 73.207 l 37.871 73.235 l 37.957 73.274 l 38.055 73.313 l 38.141
 73.352 l 38.227 73.399 l 38.324 73.445 l 38.41 73.496 l 38.484 73.543 l
 38.57 73.602 l 38.648 73.656 l 38.727 73.715 l 38.801 73.774 l 38.879 73.832
 l 38.945 73.899 l 39.004 73.965 l 39.07 74.031 l 39.129 74.102 l 39.176
 74.176 l 39.227 74.254 l 39.273 74.332 l 39.312 74.406 l 39.34 74.485 l
 39.367 74.57 l 39.406 74.742 l 39.418 74.828 l 39.418 74.914 l 39.418 75.742
 38.562 76.356 37.305 76.356 c 34.578 76.356 l 34.387 76.356 34.301 76.356
 34.301 76.164 c 34.301 76.059 34.387 76.059 34.57 76.059 c 34.59 76.059
 34.77 76.059 34.934 76.039 c 35.105 76.02 35.191 76.012 35.191 75.887 c
 35.191 75.848 35.184 75.817 35.156 75.703 c 33.867 70.567 l 33.773 70.192
 33.754 70.117 33.004 70.117 c 32.832 70.117 32.746 70.117 32.746 69.922
 c 32.746 69.817 32.859 69.817 32.879 69.817 c 33.148 69.817 33.809 69.848
 34.078 69.848 c 34.348 69.848 35.031 69.817 35.297 69.817 c 35.375 69.817
 35.492 69.817 35.492 70.012 c 35.492 70.117 35.402 70.117 35.223 70.117
 c 34.867 70.117 34.598 70.117 34.598 70.289 c 34.598 70.348 34.617 70.395
 34.625 70.453 c 35.262 72.985 l 36.395 72.985 l 36.383 73.199 l 35.316 
73.199 l 35.941 75.695 l 36 75.922 36.027 76.02 36.211 76.047 c 36.297 76.059
 36.594 76.059 36.785 76.059 c 37.469 76.059 38.535 76.059 38.535 75.11 
c 38.535 74.781 38.379 74.129 38.004 73.754 c 37.758 73.504 37.246 73.199
 36.383 73.199 c 36.395 72.985 l 37.266 72.985 37.438 72.449 37.438 72.113
 c 37.438 71.969 37.363 71.672 37.305 71.461 c 37.238 71.192 37.152 70.836
 37.152 70.645 c 37.152 69.606 38.305 69.606 38.43 69.606 c 39.234 69.606
 39.57 70.578 39.57 70.711 c 39.57 70.828 39.465 70.828 39.457 70.828 c 
39.367 70.828 39.352 70.758 39.332 70.692 c 39.09 69.981 38.676 69.817 38.465
 69.817 c 38.148 69.817 38.082 70.031 38.082 70.403 c 38.082 70.703 38.141
 71.192 38.18 71.5 c 38.199 71.633 38.219 71.817 38.219 71.942 c 38.219 
72.68 37.574 72.977 37.316 73.074 c h
37.316 73.074 m f*
45.121 70.414 m 45.121 70.52 l 45.109 70.578 l 45.109 70.625 l 45.102 70.672
 l 45.09 70.719 l 45.082 70.758 l 45.062 70.809 l 45.051 70.844 l 45.031
 70.895 l 45.016 70.934 l 44.996 70.961 l 44.965 71 l 44.945 71.039 l 44.891
 71.094 l 44.852 71.125 l 44.82 71.153 l 44.785 71.18 l 44.668 71.238 l 
44.621 71.258 l 44.57 71.278 l 44.523 71.297 l 44.477 71.305 l 44.418 71.317
 l 44.359 71.324 l 44.305 71.336 l 44.18 71.336 l 44.109 71.344 l 43.582
 71.344 43.227 71.055 43.047 70.719 c 42.91 71.192 42.547 71.344 42.059 
71.344 c 41.508 71.344 41.156 71.039 40.973 70.692 c 40.961 70.692 l 40.961
 71.344 l 39.973 71.27 l 39.973 71.028 l 40.426 71.028 40.484 70.981 40.484
 70.653 c 40.484 68.914 l 40.484 68.629 40.414 68.629 39.973 68.629 c 39.973
 68.387 l 39.992 68.387 40.465 68.418 40.742 68.418 c 40.992 68.418 41.453
 68.399 41.508 68.387 c 41.508 68.629 l 41.078 68.629 41.012 68.629 41.012
 68.914 c 41.012 70.125 l 41.012 70.828 41.566 71.153 42.008 71.153 c 42.48
 71.153 42.535 70.789 42.535 70.442 c 42.535 68.914 l 42.535 68.629 42.469
 68.629 42.027 68.629 c 42.027 68.387 l 42.047 68.387 42.52 68.418 42.797
 68.418 c 43.047 68.418 43.508 68.399 43.562 68.387 c 43.562 68.629 l 43.133
 68.629 43.066 68.629 43.066 68.914 c 43.066 70.125 l 43.066 70.828 43.621
 71.153 44.062 71.153 c 44.535 71.153 44.59 70.789 44.59 70.442 c 44.59 
68.914 l 44.59 68.629 44.523 68.629 44.094 68.629 c 44.094 68.387 l 44.102
 68.387 44.57 68.418 44.852 68.418 c 45.102 68.418 45.562 68.399 45.617 
68.387 c 45.617 68.629 l 45.188 68.629 45.121 68.629 45.121 68.914 c h
45.121 70.414 m f*
48.863 70.613 m 48.871 70.633 l 48.883 70.653 l 48.891 70.672 l 48.902 
70.692 l 48.91 70.703 l 48.922 70.719 l 48.941 70.75 l 48.961 70.778 l 48.988
 70.809 l 49.008 70.836 l 49.027 70.856 l 49.055 70.875 l 49.094 70.914 
l 49.121 70.934 l 49.141 70.942 l 49.16 70.961 l 49.191 70.969 l 49.207 
70.981 l 49.238 70.988 l 49.258 71 l 49.277 71 l 49.297 71.008 l 49.324 
71.02 l 49.363 71.02 l 49.383 71.028 l 49.488 71.028 l 49.496 71.039 l 49.496
 71.278 l 49.324 71.258 49.152 71.25 48.988 71.25 c 48.805 71.25 48.555 
71.25 48.375 71.278 c 48.375 71.039 l 48.66 71.02 48.66 70.797 48.66 70.778
 c 48.66 70.75 48.652 70.684 48.605 70.586 c 47.848 68.934 l 47.02 70.75
 l 47.02 70.758 46.98 70.828 46.98 70.875 c 46.98 71.039 47.203 71.039 47.316
 71.039 c 47.316 71.278 l 47.309 71.278 46.828 71.25 46.559 71.25 c 46.359
 71.25 46.098 71.25 45.898 71.278 c 45.898 71.039 l 46.27 71.039 46.348 
71.02 46.453 70.789 c 47.508 68.465 l 47.539 68.379 47.578 68.32 47.691 
68.32 c 47.816 68.32 47.848 68.379 47.883 68.453 c h
48.863 70.613 m f*
231.168 82.879 m 231.168 82.887 l 231.176 82.887 l 231.176 82.918 l 231.188
 82.926 l 231.188 82.945 l 231.195 82.953 l 231.195 83.024 l 231.195 83.11
 231.148 83.11 230.957 83.11 c 226.922 83.11 l 226.691 83.11 226.684 83.098
 226.625 82.918 c 226.098 81.188 l 226.078 81.149 226.07 81.082 226.07 81.055
 c 226.07 81.043 226.07 80.949 226.184 80.949 c 226.27 80.949 226.289 81.024
 226.309 81.043 c 226.672 82.176 227.172 82.813 228.66 82.813 c 230.227 
82.813 l 224.879 76.832 l 224.879 76.82 224.84 76.688 224.84 76.656 c 224.84
 76.57 224.906 76.57 225.082 76.57 c 229.238 76.57 l 229.469 76.57 229.477
 76.582 229.535 76.762 c 230.215 78.875 l 230.227 78.914 230.254 78.981 
230.254 79.02 c 230.254 79.067 230.215 79.125 230.129 79.125 c 230.043 79.125
 230.035 79.086 229.965 78.883 c 229.543 77.59 229.082 76.899 227.461 76.899
 c 225.82 76.899 l h
231.168 82.879 m f*
233.422 77.809 m 233.402 77.809 l 233.395 77.801 l 233.383 77.801 l 233.375
 77.789 l 233.363 77.781 l 233.355 77.781 l 233.348 77.77 l 233.336 77.762
 l 233.328 77.75 l 233.316 77.742 l 233.289 77.715 l 233.289 77.703 l 233.277
 77.695 l 233.27 77.684 l 233.27 77.676 l 233.258 77.664 l 233.258 77.656
 l 233.25 77.645 l 233.25 77.625 l 233.238 77.61 l 233.238 77.578 l 233.23
 77.57 l 233.23 77.52 l 233.23 77.34 233.355 77.203 233.547 77.203 c 233.73
 77.203 233.863 77.32 233.863 77.531 c 233.863 78.125 232.934 78.125 232.75
 78.125 c 231.742 78.125 231.117 77.36 231.117 76.59 c 231.117 75.746 231.84
 75.074 232.711 75.074 c 233.711 75.074 233.949 75.86 233.949 75.945 c 233.949
 76.024 233.863 76.024 233.836 76.024 c 233.75 76.024 233.738 76.004 233.699
 75.91 c 233.559 75.496 233.203 75.285 232.797 75.285 c 232.336 75.285 231.734
 75.629 231.734 76.59 c 231.734 77.445 232.145 77.914 232.77 77.914 c 232.855
 77.914 233.172 77.914 233.422 77.809 c h
233.422 77.809 m f*
Q Q
showpage
%%Trailer
end restore
%%EOF
