%!PS-Adobe-3.0 EPSF-3.0
%%Creator: cairo 1.14.10 (http://cairographics.org)
%%CreationDate: Thu Feb 15 14:06:54 2018
%%Pages: 1
%%DocumentData: Clean7Bit
%%LanguageLevel: 2
%%BoundingBox: 10 2 245 237
%%EndComments
%%BeginProlog
save
50 dict begin
/q { gsave } bind def
/Q { grestore } bind def
/cm { 6 array astore concat } bind def
/w { setlinewidth } bind def
/J { setlinecap } bind def
/j { setlinejoin } bind def
/M { setmiterlimit } bind def
/d { setdash } bind def
/m { moveto } bind def
/l { lineto } bind def
/c { curveto } bind def
/h { closepath } bind def
/re { exch dup neg 3 1 roll 5 3 roll moveto 0 rlineto
      0 exch rlineto 0 rlineto closepath } bind def
/S { stroke } bind def
/f { fill } bind def
/f* { eofill } bind def
/n { newpath } bind def
/W { clip } bind def
/W* { eoclip } bind def
/BT { } bind def
/ET { } bind def
/pdfmark where { pop globaldict /?pdfmark /exec load put }
    { globaldict begin /?pdfmark /pop load def /pdfmark
    /cleartomark load def end } ifelse
/BDC { mark 3 1 roll /BDC pdfmark } bind def
/EMC { mark /EMC pdfmark } bind def
/cairo_store_point { /cairo_point_y exch def /cairo_point_x exch def } def
/Tj { show currentpoint cairo_store_point } bind def
/TJ {
  {
    dup
    type /stringtype eq
    { show } { -0.001 mul 0 cairo_font_matrix dtransform rmoveto } ifelse
  } forall
  currentpoint cairo_store_point
} bind def
/cairo_selectfont { cairo_font_matrix aload pop pop pop 0 0 6 array astore
    cairo_font exch selectfont cairo_point_x cairo_point_y moveto } bind def
/Tf { pop /cairo_font exch def /cairo_font_matrix where
      { pop cairo_selectfont } if } bind def
/Td { matrix translate cairo_font_matrix matrix concatmatrix dup
      /cairo_font_matrix exch def dup 4 get exch 5 get cairo_store_point
      /cairo_font where { pop cairo_selectfont } if } bind def
/Tm { 2 copy 8 2 roll 6 array astore /cairo_font_matrix exch def
      cairo_store_point /cairo_font where { pop cairo_selectfont } if } bind def
/g { setgray } bind def
/rg { setrgbcolor } bind def
/d1 { setcachedevice } bind def
/cairo_flush_ascii85_file { cairo_ascii85_file status { cairo_ascii85_file flushfile } if } def
/cairo_image { image cairo_flush_ascii85_file } def
/cairo_imagemask { imagemask cairo_flush_ascii85_file } def
%%EndProlog
%%BeginSetup
%%EndSetup
%%Page: 1 1
%%BeginPageSetup
%%PageBoundingBox: 10 2 245 237
%%EndPageSetup
q 10 2 235 235 rectclip q
0.74902 g
0.3985 w
0 J
0 j
[] 0.0 d
10 M q 1 0 0 1 0 236.343002 cm
39.277 -210.484 m 39.277 -0.195 l 88.598 -210.484 m 88.598 -0.195 l 137.926
 -210.484 m 137.926 -0.195 l 187.254 -210.484 m 187.254 -0.195 l 236.59 
-210.484 m 236.59 -0.195 l S Q
q 1 0 0 1 0 236.343002 cm
26.305 -206.922 m 236.59 -206.922 l 26.305 -203.25 m 236.59 -203.25 l 26.305
 -200.145 m 236.59 -200.145 l 26.305 -197.457 m 236.59 -197.457 l 26.305
 -195.082 m 236.59 -195.082 l 26.305 -192.961 m 236.59 -192.961 l 26.305
 -178.996 m 236.59 -178.996 l 26.305 -170.832 m 236.59 -170.832 l 26.305
 -165.035 m 236.59 -165.035 l 26.305 -160.539 m 236.59 -160.539 l 26.305
 -156.867 m 236.59 -156.867 l 26.305 -153.762 m 236.59 -153.762 l 26.305
 -151.074 m 236.59 -151.074 l 26.305 -148.699 m 236.59 -148.699 l 26.305
 -146.578 m 236.59 -146.578 l 26.305 -132.617 m 236.59 -132.617 l 26.305
 -124.449 m 236.59 -124.449 l 26.305 -118.652 m 236.59 -118.652 l 26.305
 -114.156 m 236.59 -114.156 l 26.305 -110.484 m 236.59 -110.484 l 26.305
 -107.379 m 236.59 -107.379 l 26.305 -104.691 m 236.59 -104.691 l 26.305
 -102.316 m 236.59 -102.316 l 26.305 -100.195 m 236.59 -100.195 l 26.305
 -86.234 m 236.59 -86.234 l 26.305 -78.066 m 236.59 -78.066 l 26.305 -72.27
 m 236.59 -72.27 l 26.305 -67.773 m 236.59 -67.773 l 26.305 -64.102 m 236.59
 -64.102 l 26.305 -60.996 m 236.59 -60.996 l 26.305 -58.309 m 236.59 -58.309
 l 26.305 -55.934 m 236.59 -55.934 l 26.305 -53.812 m 236.59 -53.812 l 26.305
 -39.852 m 236.59 -39.852 l 26.305 -31.684 m 236.59 -31.684 l 26.305 -25.887
 m 236.59 -25.887 l 26.305 -21.395 m 236.59 -21.395 l 26.305 -17.719 m 236.59
 -17.719 l 26.305 -14.613 m 236.59 -14.613 l 26.305 -11.926 m 236.59 -11.926
 l 26.305 -9.551 m 236.59 -9.551 l S Q
q 1 0 0 1 0 236.343002 cm
26.305 -192.961 m 236.59 -192.961 l 26.305 -146.578 m 236.59 -146.578 l
 26.305 -100.195 m 236.59 -100.195 l 26.305 -53.812 m 236.59 -53.812 l 26.305
 -7.43 m 236.59 -7.43 l S Q
0.498039 g
0.19925 w
q 1 0 0 1 0 236.343002 cm
39.277 -210.484 m 39.277 -206.238 l 88.598 -210.484 m 88.598 -206.238 l
 137.926 -210.484 m 137.926 -206.238 l 187.254 -210.484 m 187.254 -206.238
 l 236.59 -210.484 m 236.59 -206.238 l 39.277 -0.195 m 39.277 -4.441 l 88.598
 -0.195 m 88.598 -4.441 l 137.926 -0.195 m 137.926 -4.441 l 187.254 -0.195
 m 187.254 -4.441 l 236.59 -0.195 m 236.59 -4.441 l S Q
q 1 0 0 1 0 236.343002 cm
26.305 -206.922 m 29.117 -206.922 l 26.305 -203.25 m 29.117 -203.25 l 26.305
 -200.145 m 29.117 -200.145 l 26.305 -197.457 m 29.117 -197.457 l 26.305
 -195.082 m 29.117 -195.082 l 26.305 -192.961 m 29.117 -192.961 l 26.305
 -178.996 m 29.117 -178.996 l 26.305 -170.832 m 29.117 -170.832 l 26.305
 -165.035 m 29.117 -165.035 l 26.305 -160.539 m 29.117 -160.539 l 26.305
 -156.867 m 29.117 -156.867 l 26.305 -153.762 m 29.117 -153.762 l 26.305
 -151.074 m 29.117 -151.074 l 26.305 -148.699 m 29.117 -148.699 l 26.305
 -146.578 m 29.117 -146.578 l 26.305 -132.617 m 29.117 -132.617 l 26.305
 -124.449 m 29.117 -124.449 l 26.305 -118.652 m 29.117 -118.652 l 26.305
 -114.156 m 29.117 -114.156 l 26.305 -110.484 m 29.117 -110.484 l 26.305
 -107.379 m 29.117 -107.379 l 26.305 -104.691 m 29.117 -104.691 l 26.305
 -102.316 m 29.117 -102.316 l 26.305 -100.195 m 29.117 -100.195 l 26.305
 -86.234 m 29.117 -86.234 l 26.305 -78.066 m 29.117 -78.066 l 26.305 -72.27
 m 29.117 -72.27 l 26.305 -67.773 m 29.117 -67.773 l 26.305 -64.102 m 29.117
 -64.102 l 26.305 -60.996 m 29.117 -60.996 l 26.305 -58.309 m 29.117 -58.309
 l 26.305 -55.934 m 29.117 -55.934 l 26.305 -53.812 m 29.117 -53.812 l 26.305
 -39.852 m 29.117 -39.852 l 26.305 -31.684 m 29.117 -31.684 l 26.305 -25.887
 m 29.117 -25.887 l 26.305 -21.395 m 29.117 -21.395 l 26.305 -17.719 m 29.117
 -17.719 l 26.305 -14.613 m 29.117 -14.613 l 26.305 -11.926 m 29.117 -11.926
 l 26.305 -9.551 m 29.117 -9.551 l 236.59 -206.922 m 233.773 -206.922 l 
236.59 -203.25 m 233.773 -203.25 l 236.59 -200.145 m 233.773 -200.145 l 
236.59 -197.457 m 233.773 -197.457 l 236.59 -195.082 m 233.773 -195.082 
l 236.59 -192.961 m 233.773 -192.961 l 236.59 -178.996 m 233.773 -178.996
 l 236.59 -170.832 m 233.773 -170.832 l 236.59 -165.035 m 233.773 -165.035
 l 236.59 -160.539 m 233.773 -160.539 l 236.59 -156.867 m 233.773 -156.867
 l 236.59 -153.762 m 233.773 -153.762 l 236.59 -151.074 m 233.773 -151.074
 l 236.59 -148.699 m 233.773 -148.699 l 236.59 -146.578 m 233.773 -146.578
 l 236.59 -132.617 m 233.773 -132.617 l 236.59 -124.449 m 233.773 -124.449
 l 236.59 -118.652 m 233.773 -118.652 l 236.59 -114.156 m 233.773 -114.156
 l 236.59 -110.484 m 233.773 -110.484 l 236.59 -107.379 m 233.773 -107.379
 l 236.59 -104.691 m 233.773 -104.691 l 236.59 -102.316 m 233.773 -102.316
 l 236.59 -100.195 m 233.773 -100.195 l 236.59 -86.234 m 233.773 -86.234
 l 236.59 -78.066 m 233.773 -78.066 l 236.59 -72.27 m 233.773 -72.27 l 236.59
 -67.773 m 233.773 -67.773 l 236.59 -64.102 m 233.773 -64.102 l 236.59 -60.996
 m 233.773 -60.996 l 236.59 -58.309 m 233.773 -58.309 l 236.59 -55.934 m
 233.773 -55.934 l 236.59 -53.812 m 233.773 -53.812 l 236.59 -39.852 m 233.773
 -39.852 l 236.59 -31.684 m 233.773 -31.684 l 236.59 -25.887 m 233.773 -25.887
 l 236.59 -21.395 m 233.773 -21.395 l 236.59 -17.719 m 233.773 -17.719 l
 236.59 -14.613 m 233.773 -14.613 l 236.59 -11.926 m 233.773 -11.926 l 236.59
 -9.551 m 233.773 -9.551 l S Q
q 1 0 0 1 0 236.343002 cm
26.305 -192.961 m 30.523 -192.961 l 26.305 -146.578 m 30.523 -146.578 l
 26.305 -100.195 m 30.523 -100.195 l 26.305 -53.812 m 30.523 -53.812 l 26.305
 -7.43 m 30.523 -7.43 l 236.59 -192.961 m 232.367 -192.961 l 236.59 -146.578
 m 232.367 -146.578 l 236.59 -100.195 m 232.367 -100.195 l 236.59 -53.812
 m 232.367 -53.812 l 236.59 -7.43 m 232.367 -7.43 l S Q
0 g
0.3985 w
q 1 0 0 1 0 236.343002 cm
26.305 -0.195 210.285 -210.289 re S Q
38.914 19.827 m 38.914 21.89 37.992 22.499 37.18 22.499 c 36.227 22.499
 35.383 21.765 35.383 20.718 c 35.383 19.702 36.164 18.952 37.07 18.952 
c 37.633 18.952 37.977 19.312 38.164 19.718 c 38.164 19.546 l 38.164 17.609
 37.242 17.281 36.773 17.281 c 36.602 17.281 36.195 17.296 35.977 17.546
 c 36.336 17.577 36.352 17.843 36.352 17.921 c 36.352 18.156 36.164 18.296
 35.977 18.296 c 35.836 18.296 35.602 18.202 35.602 17.906 c 35.602 17.359
 36.055 17.031 36.789 17.031 c 37.883 17.031 38.914 18.124 38.914 19.827
 c h
38.148 20.562 m 38.148 19.921 37.805 19.171 37.102 19.171 c 36.727 19.171
 36.492 19.343 36.32 19.64 c 36.133 19.921 36.133 20.312 36.133 20.718 c
 36.133 21.187 36.133 21.515 36.352 21.843 c 36.555 22.14 36.805 22.296 
37.18 22.296 c 37.711 22.296 37.945 21.765 37.977 21.734 c 38.133 21.343
 38.148 20.718 38.148 20.562 c h
38.148 20.562 m f
43.148 18.827 m 43.148 19.859 42.352 20.593 41.477 20.593 c 40.898 20.593
 40.555 20.234 40.367 19.843 c 40.367 20.499 40.43 21.077 40.711 21.562 
c 40.961 21.968 41.367 22.296 41.867 22.296 c 42.023 22.296 42.383 22.265
 42.57 21.999 c 42.211 21.968 42.18 21.702 42.18 21.624 c 42.18 21.374 42.367
 21.249 42.555 21.249 c 42.695 21.249 42.93 21.327 42.93 21.64 c 42.93 22.109
 42.57 22.499 41.852 22.499 c 40.742 22.499 39.617 21.452 39.617 19.734 
c 39.617 17.562 40.633 17.031 41.398 17.031 c 41.789 17.031 42.195 17.14
 42.555 17.484 c 42.883 17.796 43.148 18.124 43.148 18.827 c h
42.398 18.827 m 42.398 18.421 42.398 18.077 42.242 17.781 c 42.023 17.421
 41.758 17.281 41.398 17.281 c 40.977 17.281 40.711 17.562 40.602 17.796
 c 40.414 18.156 40.398 18.687 40.398 18.999 c 40.398 19.781 40.82 20.374
 41.445 20.374 c 41.836 20.374 42.086 20.171 42.227 19.89 c 42.398 19.593
 42.398 19.234 42.398 18.827 c h
42.398 18.827 m f
85.805 17.202 m 85.805 17.468 l 85.523 17.468 l 84.773 17.468 84.742 17.562
 84.742 17.859 c 84.742 22.281 l 84.742 22.499 84.727 22.499 84.508 22.499
 c 84.18 22.187 83.758 21.999 83.008 21.999 c 83.008 21.734 l 83.227 21.734
 83.648 21.734 84.117 21.937 c 84.117 17.859 l 84.117 17.562 84.086 17.468
 83.336 17.468 c 83.055 17.468 l 83.055 17.202 l 83.383 17.234 84.07 17.234
 84.43 17.234 c 84.789 17.234 85.477 17.234 85.805 17.202 c h
85.805 17.202 m f
90.352 19.827 m 90.352 21.89 89.43 22.499 88.617 22.499 c 87.664 22.499
 86.82 21.765 86.82 20.718 c 86.82 19.702 87.602 18.952 88.508 18.952 c 
89.07 18.952 89.414 19.312 89.602 19.718 c 89.602 19.546 l 89.602 17.609
 88.68 17.281 88.211 17.281 c 88.039 17.281 87.633 17.296 87.414 17.546 
c 87.773 17.577 87.789 17.843 87.789 17.921 c 87.789 18.156 87.602 18.296
 87.414 18.296 c 87.273 18.296 87.039 18.202 87.039 17.906 c 87.039 17.359
 87.492 17.031 88.227 17.031 c 89.32 17.031 90.352 18.124 90.352 19.827 
c h
89.586 20.562 m 89.586 19.921 89.242 19.171 88.539 19.171 c 88.164 19.171
 87.93 19.343 87.758 19.64 c 87.57 19.921 87.57 20.312 87.57 20.718 c 87.57
 21.187 87.57 21.515 87.789 21.843 c 87.992 22.14 88.242 22.296 88.617 22.296
 c 89.148 22.296 89.383 21.765 89.414 21.734 c 89.57 21.343 89.586 20.718
 89.586 20.562 c h
89.586 20.562 m f
94.508 18.624 m 94.258 18.624 l 94.242 18.468 94.18 18.077 94.086 17.921
 c 94.039 17.859 93.43 17.859 93.305 17.859 c 91.883 17.859 l 92.961 18.827
 l 93.086 18.952 93.414 19.218 93.555 19.327 c 94.039 19.781 94.508 20.218
 94.508 20.937 c 94.508 21.89 93.711 22.499 92.727 22.499 c 91.758 22.499
 91.133 21.781 91.133 21.062 c 91.133 20.671 91.445 20.624 91.555 20.624
 c 91.727 20.624 91.977 20.734 91.977 21.046 c 91.977 21.452 91.57 21.452
 91.477 21.452 c 91.711 22.046 92.242 22.234 92.633 22.234 c 93.367 22.234
 93.758 21.609 93.758 20.937 c 93.758 20.109 93.18 19.499 92.227 18.546 
c 91.227 17.499 l 91.133 17.421 91.133 17.406 91.133 17.202 c 94.273 17.202
 l h
94.508 18.624 m f
135.445 18.562 m 135.445 19.234 134.914 19.827 134.102 20.015 c 134.727
 20.234 135.211 20.765 135.211 21.406 c 135.211 22.046 134.492 22.499 133.664
 22.499 c 132.805 22.499 132.164 22.046 132.164 21.437 c 132.164 21.14 132.352
 21.015 132.57 21.015 c 132.82 21.015 132.977 21.187 132.977 21.421 c 132.977
 21.718 132.711 21.827 132.539 21.827 c 132.883 22.265 133.492 22.296 133.633
 22.296 c 133.836 22.296 134.445 22.234 134.445 21.406 c 134.445 20.859 
134.211 20.515 134.102 20.39 c 133.867 20.14 133.68 20.124 133.195 20.093
 c 133.039 20.093 132.977 20.077 132.977 19.968 c 132.977 19.859 133.055
 19.859 133.195 19.859 c 133.586 19.859 l 134.211 19.859 134.617 19.406 
134.617 18.562 c 134.617 17.562 134.055 17.281 133.633 17.281 c 133.195 
17.281 132.586 17.437 132.305 17.859 c 132.602 17.859 132.805 18.046 132.805
 18.296 c 132.805 18.562 132.617 18.734 132.352 18.734 c 132.148 18.734 
131.914 18.609 131.914 18.281 c 131.914 17.531 132.727 17.031 133.648 17.031
 c 134.695 17.031 135.445 17.765 135.445 18.562 c h
135.445 18.562 m f
139.68 18.546 m 139.68 19.046 139.414 19.374 139.273 19.515 c 139.148 19.64
 139.133 19.656 138.445 20.077 c 138.898 20.296 139.445 20.687 139.445 21.312
 c 139.445 22.077 138.664 22.499 137.93 22.499 c 137.086 22.499 136.398 
21.921 136.398 21.171 c 136.398 20.874 136.492 20.609 136.695 20.374 c 136.836
 20.202 136.867 20.187 137.352 19.874 c 136.367 19.437 136.148 18.859 136.148
 18.421 c 136.148 17.531 137.039 17.031 137.914 17.031 c 138.883 17.031 
139.68 17.702 139.68 18.546 c h
139.039 21.312 m 139.039 20.859 138.68 20.468 138.211 20.234 c 137.211 
20.827 l 136.977 20.968 136.789 21.202 136.789 21.468 c 136.789 21.968 137.336
 22.296 137.914 22.296 c 138.523 22.296 139.039 21.874 139.039 21.312 c 
h
139.227 18.265 m 139.227 17.656 138.57 17.281 137.93 17.281 c 137.211 17.281
 136.617 17.765 136.617 18.421 c 136.617 19.015 137.055 19.484 137.602 19.734
 c 138.68 19.077 l 138.805 18.999 139.227 18.749 139.227 18.265 c h
139.227 18.265 m f
144.023 18.515 m 144.023 18.765 l 143.18 18.765 l 143.18 22.359 l 143.18
 22.515 143.18 22.577 143.008 22.577 c 142.914 22.577 142.898 22.577 142.82
 22.468 c 140.273 18.765 l 140.273 18.515 l 142.523 18.515 l 142.523 17.843
 l 142.523 17.546 142.508 17.468 141.883 17.468 c 141.711 17.468 l 141.711
 17.202 l 142.852 17.234 l 143.992 17.202 l 143.992 17.468 l 143.82 17.468
 l 143.195 17.468 143.18 17.546 143.18 17.843 c 143.18 18.515 l h
142.586 18.765 m 140.555 18.765 l 142.586 21.718 l h
142.586 18.765 m f
185.008 22.327 m 182.977 22.327 l 182.773 22.327 182.539 22.343 182.336
 22.359 c 181.914 22.39 181.914 22.468 181.883 22.593 c 181.633 22.593 l
 181.367 20.906 l 181.617 20.906 l 181.633 21.031 181.727 21.577 181.836
 21.64 c 181.914 21.687 182.523 21.687 182.633 21.687 c 184.32 21.687 l 
183.508 20.577 l 182.602 19.374 182.398 18.109 182.398 17.484 c 182.398 
17.406 182.398 17.031 182.773 17.031 c 183.148 17.031 183.148 17.39 183.148
 17.484 c 183.148 17.874 l 183.148 19.015 183.352 19.952 183.742 20.484 
c 184.93 22.062 l 185.008 22.14 185.008 22.156 185.008 22.327 c h
185.008 22.327 m f
189.008 18.827 m 189.008 19.859 188.211 20.593 187.336 20.593 c 186.758
 20.593 186.414 20.234 186.227 19.843 c 186.227 20.499 186.289 21.077 186.57
 21.562 c 186.82 21.968 187.227 22.296 187.727 22.296 c 187.883 22.296 188.242
 22.265 188.43 21.999 c 188.07 21.968 188.039 21.702 188.039 21.624 c 188.039
 21.374 188.227 21.249 188.414 21.249 c 188.555 21.249 188.789 21.327 188.789
 21.64 c 188.789 22.109 188.43 22.499 187.711 22.499 c 186.602 22.499 185.477
 21.452 185.477 19.734 c 185.477 17.562 186.492 17.031 187.258 17.031 c 
187.648 17.031 188.055 17.14 188.414 17.484 c 188.742 17.796 189.008 18.124
 189.008 18.827 c h
188.258 18.827 m 188.258 18.421 188.258 18.077 188.102 17.781 c 187.883
 17.421 187.617 17.281 187.258 17.281 c 186.836 17.281 186.57 17.562 186.461
 17.796 c 186.273 18.156 186.258 18.687 186.258 18.999 c 186.258 19.781 
186.68 20.374 187.305 20.374 c 187.695 20.374 187.945 20.171 188.086 19.89
 c 188.258 19.593 188.258 19.234 188.258 18.827 c h
188.258 18.827 m f
193.242 18.546 m 193.242 19.046 192.977 19.374 192.836 19.515 c 192.711
 19.64 192.695 19.656 192.008 20.077 c 192.461 20.296 193.008 20.687 193.008
 21.312 c 193.008 22.077 192.227 22.499 191.492 22.499 c 190.648 22.499 
189.961 21.921 189.961 21.171 c 189.961 20.874 190.055 20.609 190.258 20.374
 c 190.398 20.202 190.43 20.187 190.914 19.874 c 189.93 19.437 189.711 18.859
 189.711 18.421 c 189.711 17.531 190.602 17.031 191.477 17.031 c 192.445
 17.031 193.242 17.702 193.242 18.546 c h
192.602 21.312 m 192.602 20.859 192.242 20.468 191.773 20.234 c 190.773
 20.827 l 190.539 20.968 190.352 21.202 190.352 21.468 c 190.352 21.968 
190.898 22.296 191.477 22.296 c 192.086 22.296 192.602 21.874 192.602 21.312
 c h
192.789 18.265 m 192.789 17.656 192.133 17.281 191.492 17.281 c 190.773
 17.281 190.18 17.765 190.18 18.421 c 190.18 19.015 190.617 19.484 191.164
 19.734 c 192.242 19.077 l 192.367 18.999 192.789 18.749 192.789 18.265 
c h
192.789 18.265 m f
231.676 17.202 m 231.676 17.468 l 231.395 17.468 l 230.645 17.468 230.613
 17.562 230.613 17.859 c 230.613 22.281 l 230.613 22.499 230.598 22.499 
230.379 22.499 c 230.051 22.187 229.629 21.999 228.879 21.999 c 228.879 
21.734 l 229.098 21.734 229.52 21.734 229.988 21.937 c 229.988 17.859 l 
229.988 17.562 229.957 17.468 229.207 17.468 c 228.926 17.468 l 228.926 
17.202 l 229.254 17.234 229.941 17.234 230.301 17.234 c 230.66 17.234 231.348
 17.234 231.676 17.202 c h
231.676 17.202 m f
236.145 18.796 m 236.145 19.718 235.473 20.546 234.535 20.546 c 234.145
 20.546 233.77 20.421 233.457 20.14 c 233.457 21.687 l 233.566 21.656 233.879
 21.562 234.223 21.562 c 235.223 21.562 235.816 22.265 235.816 22.39 c 235.816
 22.484 235.77 22.499 235.723 22.499 c 235.723 22.499 235.691 22.499 235.629
 22.468 c 235.316 22.343 234.941 22.249 234.52 22.249 c 234.051 22.249 233.66
 22.359 233.41 22.468 c 233.332 22.499 233.301 22.499 233.301 22.499 c 233.207
 22.499 233.207 22.421 233.207 22.265 c 233.207 19.937 l 233.207 19.796 
233.207 19.702 233.332 19.702 c 233.395 19.702 233.41 19.734 233.457 19.796
 c 233.551 19.906 233.848 20.312 234.535 20.312 c 234.973 20.312 235.191
 19.952 235.27 19.796 c 235.395 19.515 235.41 19.14 235.41 18.843 c 235.41
 18.546 235.41 18.109 235.191 17.765 c 235.035 17.515 234.707 17.281 234.285
 17.281 c 233.77 17.281 233.27 17.593 233.082 18.124 c 233.098 18.109 233.16
 18.109 233.16 18.109 c 233.379 18.109 233.566 18.249 233.566 18.499 c 233.566
 18.796 233.332 18.906 233.176 18.906 c 233.02 18.906 232.77 18.827 232.77
 18.484 c 232.77 17.765 233.395 17.031 234.301 17.031 c 235.301 17.031 236.145
 17.812 236.145 18.796 c h
236.145 18.796 m f
240.457 18.562 m 240.457 19.234 239.926 19.827 239.113 20.015 c 239.738
 20.234 240.223 20.765 240.223 21.406 c 240.223 22.046 239.504 22.499 238.676
 22.499 c 237.816 22.499 237.176 22.046 237.176 21.437 c 237.176 21.14 237.363
 21.015 237.582 21.015 c 237.832 21.015 237.988 21.187 237.988 21.421 c 
237.988 21.718 237.723 21.827 237.551 21.827 c 237.895 22.265 238.504 22.296
 238.645 22.296 c 238.848 22.296 239.457 22.234 239.457 21.406 c 239.457
 20.859 239.223 20.515 239.113 20.39 c 238.879 20.14 238.691 20.124 238.207
 20.093 c 238.051 20.093 237.988 20.077 237.988 19.968 c 237.988 19.859 
238.066 19.859 238.207 19.859 c 238.598 19.859 l 239.223 19.859 239.629 
19.406 239.629 18.562 c 239.629 17.562 239.066 17.281 238.645 17.281 c 238.207
 17.281 237.598 17.437 237.316 17.859 c 237.613 17.859 237.816 18.046 237.816
 18.296 c 237.816 18.562 237.629 18.734 237.363 18.734 c 237.16 18.734 236.926
 18.609 236.926 18.281 c 236.926 17.531 237.738 17.031 238.66 17.031 c 239.707
 17.031 240.457 17.765 240.457 18.562 c h
240.457 18.562 m f
244.691 18.827 m 244.691 19.859 243.895 20.593 243.02 20.593 c 242.441 
20.593 242.098 20.234 241.91 19.843 c 241.91 20.499 241.973 21.077 242.254
 21.562 c 242.504 21.968 242.91 22.296 243.41 22.296 c 243.566 22.296 243.926
 22.265 244.113 21.999 c 243.754 21.968 243.723 21.702 243.723 21.624 c 
243.723 21.374 243.91 21.249 244.098 21.249 c 244.238 21.249 244.473 21.327
 244.473 21.64 c 244.473 22.109 244.113 22.499 243.395 22.499 c 242.285 
22.499 241.16 21.452 241.16 19.734 c 241.16 17.562 242.176 17.031 242.941
 17.031 c 243.332 17.031 243.738 17.14 244.098 17.484 c 244.426 17.796 244.691
 18.124 244.691 18.827 c h
243.941 18.827 m 243.941 18.421 243.941 18.077 243.785 17.781 c 243.566
 17.421 243.301 17.281 242.941 17.281 c 242.52 17.281 242.254 17.562 242.145
 17.796 c 241.957 18.156 241.941 18.687 241.941 18.999 c 241.941 19.781 
242.363 20.374 242.988 20.374 c 243.379 20.374 243.629 20.171 243.77 19.89
 c 243.941 19.593 243.941 19.234 243.941 18.827 c h
243.941 18.827 m f
13.723 40.05 m 13.723 40.316 l 13.441 40.316 l 12.691 40.316 12.66 40.409
 12.66 40.706 c 12.66 45.128 l 12.66 45.347 12.645 45.347 12.426 45.347 
c 12.098 45.034 11.676 44.847 10.926 44.847 c 10.926 44.581 l 11.145 44.581
 11.566 44.581 12.035 44.784 c 12.035 40.706 l 12.035 40.409 12.004 40.316
 11.254 40.316 c 10.973 40.316 l 10.973 40.05 l 11.301 40.081 11.988 40.081
 12.348 40.081 c 12.707 40.081 13.395 40.081 13.723 40.05 c h
13.723 40.05 m f
18.285 42.597 m 18.285 43.441 18.207 43.956 17.941 44.472 c 17.598 45.175
 16.941 45.347 16.504 45.347 c 15.504 45.347 15.129 44.597 15.02 44.378 
c 14.738 43.8 14.723 43.003 14.723 42.597 c 14.723 42.066 14.738 41.269 
15.129 40.628 c 15.488 40.034 16.082 39.878 16.504 39.878 c 16.895 39.878
 17.566 40.003 17.973 40.784 c 18.27 41.363 18.285 42.081 18.285 42.597 
c h
17.582 42.691 m 17.582 42.222 17.582 41.503 17.488 41.05 c 17.316 40.222
 16.77 40.113 16.504 40.113 c 16.238 40.113 15.691 40.238 15.52 41.066 c
 15.426 41.519 15.426 42.269 15.426 42.691 c 15.426 43.238 15.426 43.8 15.52
 44.238 c 15.691 45.05 16.301 45.128 16.504 45.128 c 16.77 45.128 17.332
 44.988 17.488 44.269 c 17.582 43.831 17.582 43.222 17.582 42.691 c h
17.582 42.691 m f
21.645 42.863 m 21.645 43.097 l 21.395 43.097 l 20.77 43.097 20.77 43.175
 20.77 43.378 c 20.77 46.659 l 20.77 46.847 20.754 46.847 20.566 46.847 
c 20.176 46.456 19.566 46.456 19.348 46.456 c 19.348 46.222 l 19.504 46.222
 19.91 46.222 20.27 46.394 c 20.27 43.378 l 20.27 43.175 20.27 43.097 19.645
 43.097 c 19.395 43.097 l 19.395 42.863 l 19.723 42.894 20.191 42.894 20.52
 42.894 c 20.848 42.894 21.316 42.894 21.645 42.863 c h
21.645 42.863 m f
13.723 86.433 m 13.723 86.698 l 13.441 86.698 l 12.691 86.698 12.66 86.792
 12.66 87.089 c 12.66 91.511 l 12.66 91.73 12.645 91.73 12.426 91.73 c 12.098
 91.417 11.676 91.23 10.926 91.23 c 10.926 90.964 l 11.145 90.964 11.566
 90.964 12.035 91.167 c 12.035 87.089 l 12.035 86.792 12.004 86.698 11.254
 86.698 c 10.973 86.698 l 10.973 86.433 l 11.301 86.464 11.988 86.464 12.348
 86.464 c 12.707 86.464 13.395 86.464 13.723 86.433 c h
13.723 86.433 m f
18.285 88.98 m 18.285 89.823 18.207 90.339 17.941 90.855 c 17.598 91.558
 16.941 91.73 16.504 91.73 c 15.504 91.73 15.129 90.98 15.02 90.761 c 14.738
 90.183 14.723 89.386 14.723 88.98 c 14.723 88.448 14.738 87.652 15.129 
87.011 c 15.488 86.417 16.082 86.261 16.504 86.261 c 16.895 86.261 17.566
 86.386 17.973 87.167 c 18.27 87.745 18.285 88.464 18.285 88.98 c h
17.582 89.073 m 17.582 88.605 17.582 87.886 17.488 87.433 c 17.316 86.605
 16.77 86.495 16.504 86.495 c 16.238 86.495 15.691 86.62 15.52 87.448 c 
15.426 87.902 15.426 88.652 15.426 89.073 c 15.426 89.62 15.426 90.183 15.52
 90.62 c 15.691 91.433 16.301 91.511 16.504 91.511 c 16.77 91.511 17.332
 91.37 17.488 90.652 c 17.582 90.214 17.582 89.605 17.582 89.073 c h
17.582 89.073 m f
21.848 90.37 m 21.629 90.37 l 21.613 90.277 21.551 89.886 21.473 89.823
 c 21.426 89.777 20.941 89.777 20.848 89.777 c 19.738 89.777 l 20.504 90.402
 l 20.707 90.573 21.238 90.948 21.426 91.136 c 21.598 91.308 21.848 91.62
 21.848 92.042 c 21.848 92.792 21.176 93.23 20.363 93.23 c 19.598 93.23 
19.066 92.714 19.066 92.152 c 19.066 91.855 19.316 91.808 19.379 91.808 
c 19.535 91.808 19.707 91.917 19.707 92.136 c 19.707 92.261 19.629 92.464
 19.363 92.464 c 19.504 92.761 19.863 92.995 20.285 92.995 c 20.91 92.995
 21.238 92.527 21.238 92.042 c 21.238 91.62 20.957 91.183 20.551 90.792 
c 19.129 89.495 l 19.066 89.433 19.066 89.433 19.066 89.245 c 21.66 89.245
 l h
21.848 90.37 m f
13.723 132.812 m 13.723 133.077 l 13.441 133.077 l 12.691 133.077 12.66
 133.171 12.66 133.468 c 12.66 137.89 l 12.66 138.109 12.645 138.109 12.426
 138.109 c 12.098 137.796 11.676 137.609 10.926 137.609 c 10.926 137.343
 l 11.145 137.343 11.566 137.343 12.035 137.546 c 12.035 133.468 l 12.035
 133.171 12.004 133.077 11.254 133.077 c 10.973 133.077 l 10.973 132.812
 l 11.301 132.843 11.988 132.843 12.348 132.843 c 12.707 132.843 13.395 
132.843 13.723 132.812 c h
13.723 132.812 m f
18.285 135.359 m 18.285 136.202 18.207 136.718 17.941 137.234 c 17.598 
137.937 16.941 138.109 16.504 138.109 c 15.504 138.109 15.129 137.359 15.02
 137.14 c 14.738 136.562 14.723 135.765 14.723 135.359 c 14.723 134.827 
14.738 134.031 15.129 133.39 c 15.488 132.796 16.082 132.64 16.504 132.64
 c 16.895 132.64 17.566 132.765 17.973 133.546 c 18.27 134.124 18.285 134.843
 18.285 135.359 c h
17.582 135.452 m 17.582 134.984 17.582 134.265 17.488 133.812 c 17.316 
132.984 16.77 132.874 16.504 132.874 c 16.238 132.874 15.691 132.999 15.52
 133.827 c 15.426 134.281 15.426 135.031 15.426 135.452 c 15.426 135.999
 15.426 136.562 15.52 136.999 c 15.691 137.812 16.301 137.89 16.504 137.89
 c 16.77 137.89 17.332 137.749 17.488 137.031 c 17.582 136.593 17.582 135.984
 17.582 135.452 c h
17.582 135.452 m f
21.895 136.656 m 21.895 137.093 21.566 137.562 20.848 137.734 c 21.332 
137.89 21.707 138.281 21.707 138.765 c 21.707 139.249 21.145 139.609 20.426
 139.609 c 19.723 139.609 19.191 139.281 19.191 138.796 c 19.191 138.531
 19.395 138.468 19.52 138.468 c 19.676 138.468 19.832 138.562 19.832 138.781
 c 19.832 138.968 19.707 139.077 19.535 139.093 c 19.816 139.406 20.363 
139.406 20.426 139.406 c 20.723 139.406 21.113 139.265 21.113 138.765 c 
21.113 138.437 20.926 137.859 20.316 137.827 c 20.207 137.827 20.051 137.812
 20.004 137.812 c 19.941 137.796 19.879 137.796 19.879 137.702 c 19.879 
137.609 19.941 137.609 20.035 137.609 c 20.395 137.609 l 20.895 137.609 
21.238 137.265 21.238 136.656 c 21.238 135.999 20.848 135.718 20.41 135.718
 c 20.238 135.718 19.629 135.749 19.363 136.093 c 19.598 136.124 19.691 
136.281 19.691 136.437 c 19.691 136.64 19.551 136.781 19.348 136.781 c 19.191
 136.781 19.004 136.671 19.004 136.421 c 19.004 135.827 19.66 135.499 20.426
 135.499 c 21.316 135.499 21.895 136.062 21.895 136.656 c h
21.895 136.656 m f
13.723 179.195 m 13.723 179.46 l 13.441 179.46 l 12.691 179.46 12.66 179.554
 12.66 179.851 c 12.66 184.273 l 12.66 184.491 12.645 184.491 12.426 184.491
 c 12.098 184.179 11.676 183.991 10.926 183.991 c 10.926 183.726 l 11.145
 183.726 11.566 183.726 12.035 183.929 c 12.035 179.851 l 12.035 179.554
 12.004 179.46 11.254 179.46 c 10.973 179.46 l 10.973 179.195 l 11.301 179.226
 11.988 179.226 12.348 179.226 c 12.707 179.226 13.395 179.226 13.723 179.195
 c h
13.723 179.195 m f
18.285 181.741 m 18.285 182.585 18.207 183.101 17.941 183.616 c 17.598 
184.32 16.941 184.491 16.504 184.491 c 15.504 184.491 15.129 183.741 15.02
 183.523 c 14.738 182.945 14.723 182.148 14.723 181.741 c 14.723 181.21 
14.738 180.413 15.129 179.773 c 15.488 179.179 16.082 179.023 16.504 179.023
 c 16.895 179.023 17.566 179.148 17.973 179.929 c 18.27 180.507 18.285 181.226
 18.285 181.741 c h
17.582 181.835 m 17.582 181.366 17.582 180.648 17.488 180.195 c 17.316 
179.366 16.77 179.257 16.504 179.257 c 16.238 179.257 15.691 179.382 15.52
 180.21 c 15.426 180.663 15.426 181.413 15.426 181.835 c 15.426 182.382 
15.426 182.945 15.52 183.382 c 15.691 184.195 16.301 184.273 16.504 184.273
 c 16.77 184.273 17.332 184.132 17.488 183.413 c 17.582 182.976 17.582 182.366
 17.582 181.835 c h
17.582 181.835 m f
22.004 182.991 m 22.004 183.226 l 21.301 183.226 l 21.301 185.866 l 21.301
 186.007 21.301 186.054 21.16 186.054 c 21.051 186.054 21.035 186.023 20.988
 185.96 c 18.91 183.226 l 18.91 182.991 l 20.77 182.991 l 20.77 182.507 
l 20.77 182.32 20.77 182.241 20.27 182.241 c 20.082 182.241 l 20.082 182.007
 l 21.035 182.038 l 21.973 182.007 l 21.973 182.241 l 21.801 182.241 l 21.301
 182.241 21.301 182.32 21.301 182.507 c 21.301 182.991 l h
20.801 183.226 m 19.16 183.226 l 20.801 185.398 l h
20.801 183.226 m f
13.723 225.577 m 13.723 225.843 l 13.441 225.843 l 12.691 225.843 12.66
 225.937 12.66 226.234 c 12.66 230.656 l 12.66 230.874 12.645 230.874 12.426
 230.874 c 12.098 230.562 11.676 230.374 10.926 230.374 c 10.926 230.109
 l 11.145 230.109 11.566 230.109 12.035 230.312 c 12.035 226.234 l 12.035
 225.937 12.004 225.843 11.254 225.843 c 10.973 225.843 l 10.973 225.577
 l 11.301 225.609 11.988 225.609 12.348 225.609 c 12.707 225.609 13.395 
225.609 13.723 225.577 c h
13.723 225.577 m f
18.285 228.124 m 18.285 228.968 18.207 229.484 17.941 229.999 c 17.598 
230.702 16.941 230.874 16.504 230.874 c 15.504 230.874 15.129 230.124 15.02
 229.906 c 14.738 229.327 14.723 228.531 14.723 228.124 c 14.723 227.593
 14.738 226.796 15.129 226.156 c 15.488 225.562 16.082 225.406 16.504 225.406
 c 16.895 225.406 17.566 225.531 17.973 226.312 c 18.27 226.89 18.285 227.609
 18.285 228.124 c h
17.582 228.218 m 17.582 227.749 17.582 227.031 17.488 226.577 c 17.316 
225.749 16.77 225.64 16.504 225.64 c 16.238 225.64 15.691 225.765 15.52 
226.593 c 15.426 227.046 15.426 227.796 15.426 228.218 c 15.426 228.765 
15.426 229.327 15.52 229.765 c 15.691 230.577 16.301 230.656 16.504 230.656
 c 16.77 230.656 17.332 230.515 17.488 229.796 c 17.582 229.359 17.582 228.749
 17.582 228.218 c h
17.582 228.218 m f
21.848 229.593 m 21.848 230.281 21.301 230.89 20.52 230.89 c 20.145 230.89
 19.832 230.765 19.645 230.609 c 19.645 231.718 l 19.848 231.656 20.051 
231.64 20.254 231.64 c 20.395 231.64 20.723 231.64 21.098 231.843 c 21.207
 231.906 21.566 232.156 21.566 232.281 c 21.566 232.359 21.52 232.374 21.488
 232.374 c 21.473 232.374 21.473 232.374 21.395 232.343 c 21.191 232.265
 20.879 232.171 20.488 232.171 c 20.191 232.171 19.879 232.234 19.598 232.327
 c 19.551 232.359 19.52 232.374 19.504 232.374 c 19.41 232.374 19.41 232.296
 19.41 232.202 c 19.41 230.406 l 19.41 230.312 19.41 230.234 19.52 230.234
 c 19.582 230.234 19.598 230.265 19.629 230.312 c 19.785 230.499 20.051 
230.702 20.52 230.702 c 21.254 230.702 21.254 229.812 21.254 229.624 c 21.254
 229.39 21.238 229.046 21.035 228.796 c 20.848 228.577 20.566 228.484 20.316
 228.484 c 19.91 228.484 19.488 228.702 19.348 229.062 c 19.645 229.062 
19.676 229.296 19.676 229.359 c 19.676 229.531 19.551 229.671 19.363 229.671
 c 19.316 229.671 19.066 229.64 19.066 229.343 c 19.066 228.796 19.582 228.265
 20.332 228.265 c 21.16 228.265 21.848 228.843 21.848 229.593 c h
21.848 229.593 m f
Q q
33 178.343 203.59 -42 re W n
q
33 178.343 204 -42 re W n
[ 1 0 0 1 0 -0.656998 ] concat
  q
0 0.498039 0.498039 rg
0.3985 w
0 J
0 j
[] 0.0 d
10 M q 1 0 0 1 0 237 cm
39.277 -64.57 m 88.598 -76.336 l 137.926 -85.965 l 187.254 -93.543 l 236.59
 -93.293 l S Q
  Q
Q
Q q
33 125.343 203.59 -42 re W n
q
33 125.343 204 -42 re W n
[ 1 0 0 1 0 -0.656998 ] concat
  q
1 0.498039 0 rg
0.3985 w
0 J
0 j
[] 0.0 d
10 M q 1 0 0 1 0 237 cm
39.277 -117.289 m 88.598 -130.012 l 137.926 -140.023 l 187.254 -147.23 
l 236.59 -146.707 l S Q
  Q
Q
Q q
33 158.343 203.59 -60 re W n
q
33 158.343 204 -60 re W n
[ 1 0 0 1 0 -0.656998 ] concat
  q
0.258824 0.509804 0.631373 rg
0.3985 w
0 J
0 j
[] 0.0 d
10 M q 1 0 0 1 0 237 cm
39.277 -83.762 m 88.598 -96.273 l 137.926 -108.527 l 187.254 -120.215 l
 236.59 -131.562 l S Q
  Q
Q
Q q
33 222.343 203.59 -68 re W n
q
33 222.343 204 -68 re W n
[ 1 0 0 1 0 -0.656998 ] concat
  q
1 0.290196 0.290196 rg
0.3985 w
0 J
0 j
[] 0.0 d
10 M q 1 0 0 1 0 237 cm
39.277 -19.871 m 88.598 -33.832 l 137.926 -47.793 l 187.254 -61.758 l 236.59
 -75.723 l S Q
  Q
Q
Q q
33 178.343 203.59 -56 re W n
q
33 178.343 204 -56 re W n
[ 1 0 0 1 0 -0.656998 ] concat
  q
0 g
0.3985 w
0 J
0 j
[] 0.0 d
10 M q 1 0 0 1 0 237 cm
39.277 -64.57 m 236.59 -107.508 l S Q
  Q
Q
Q q
33 125.343 203.59 -56 re W n
q
33 125.343 204 -56 re W n
[ 1 0 0 1 0 -0.656998 ] concat
  q
0 g
0.3985 w
0 J
0 j
[] 0.0 d
10 M q 1 0 0 1 0 237 cm
39.277 -117.289 m 236.59 -161.195 l S Q
  Q
Q
Q q
33 158.343 203.59 -62 re W n
q
33 158.343 204 -62 re W n
[ 1 0 0 1 0 -0.656998 ] concat
  q
0 g
0.3985 w
0 J
0 j
[] 0.0 d
10 M q 1 0 0 1 0 237 cm
39.277 -83.762 m 236.59 -134.18 l S Q
  Q
Q
Q q
187 236.148 1 -210.289 re W n
q
187 236.343 1 -211 re W n
[ 1 0 0 1 0 -0.656998 ] concat
  q
0.592157 0 0.188235 rg
0.3985 w
0 J
0 j
[] 0.0 d
10 M q 1 0 0 1 0 237 cm
187.254 -0.195 m 187.254 -210.484 l S Q
  Q
Q
Q q
0 0.388235 0.388235 rg
41.27 171.773 m 41.27 172.874 40.379 173.765 39.277 173.765 c 38.176 173.765
 37.285 172.874 37.285 171.773 c 37.285 170.675 38.176 169.781 39.277 169.781
 c 40.379 169.781 41.27 170.675 41.27 171.773 c h
41.27 171.773 m f
0 0.498039 0.498039 rg
0.3985 w
0 J
0 j
[] 0.0 d
10 M q 1 0 0 1 0 236.343002 cm
41.27 -64.57 m 41.27 -63.469 40.379 -62.578 39.277 -62.578 c 38.176 -62.578
 37.285 -63.469 37.285 -64.57 c 37.285 -65.668 38.176 -66.562 39.277 -66.562
 c 40.379 -66.562 41.27 -65.668 41.27 -64.57 c h
41.27 -64.57 m S Q
0 0.388235 0.388235 rg
90.59 160.007 m 90.59 161.109 89.699 161.999 88.598 161.999 c 87.496 161.999
 86.605 161.109 86.605 160.007 c 86.605 158.906 87.496 158.015 88.598 158.015
 c 89.699 158.015 90.59 158.906 90.59 160.007 c h
90.59 160.007 m f
0 0.498039 0.498039 rg
q 1 0 0 1 0 236.343002 cm
90.59 -76.336 m 90.59 -75.234 89.699 -74.344 88.598 -74.344 c 87.496 -74.344
 86.605 -75.234 86.605 -76.336 c 86.605 -77.438 87.496 -78.328 88.598 -78.328
 c 89.699 -78.328 90.59 -77.438 90.59 -76.336 c h
90.59 -76.336 m S Q
0 0.388235 0.388235 rg
139.918 150.378 m 139.918 151.48 139.027 152.37 137.926 152.37 c 136.824
 152.37 135.934 151.48 135.934 150.378 c 135.934 149.277 136.824 148.386
 137.926 148.386 c 139.027 148.386 139.918 149.277 139.918 150.378 c h
139.918 150.378 m f
0 0.498039 0.498039 rg
q 1 0 0 1 0 236.343002 cm
139.918 -85.965 m 139.918 -84.863 139.027 -83.973 137.926 -83.973 c 136.824
 -83.973 135.934 -84.863 135.934 -85.965 c 135.934 -87.066 136.824 -87.957
 137.926 -87.957 c 139.027 -87.957 139.918 -87.066 139.918 -85.965 c h
139.918 -85.965 m S Q
0 0.388235 0.388235 rg
189.246 142.8 m 189.246 143.898 188.355 144.792 187.254 144.792 c 186.152
 144.792 185.262 143.898 185.262 142.8 c 185.262 141.698 186.152 140.808
 187.254 140.808 c 188.355 140.808 189.246 141.698 189.246 142.8 c h
189.246 142.8 m f
0 0.498039 0.498039 rg
q 1 0 0 1 0 236.343002 cm
189.246 -93.543 m 189.246 -92.445 188.355 -91.551 187.254 -91.551 c 186.152
 -91.551 185.262 -92.445 185.262 -93.543 c 185.262 -94.645 186.152 -95.535
 187.254 -95.535 c 188.355 -95.535 189.246 -94.645 189.246 -93.543 c h
189.246 -93.543 m S Q
0 0.388235 0.388235 rg
238.582 143.05 m 238.582 144.148 237.688 145.042 236.59 145.042 c 235.488
 145.042 234.598 144.148 234.598 143.05 c 234.598 141.948 235.488 141.058
 236.59 141.058 c 237.688 141.058 238.582 141.948 238.582 143.05 c h
238.582 143.05 m f
0 0.498039 0.498039 rg
q 1 0 0 1 0 236.343002 cm
238.582 -93.293 m 238.582 -92.195 237.688 -91.301 236.59 -91.301 c 235.488
 -91.301 234.598 -92.195 234.598 -93.293 c 234.598 -94.395 235.488 -95.285
 236.59 -95.285 c 237.688 -95.285 238.582 -94.395 238.582 -93.293 c h
238.582 -93.293 m S Q
0.792157 0.388235 0 rg
37.285 121.05 3.984 -3.988 re f
1 0.498039 0 rg
q 1 0 0 1 0 236.343002 cm
37.285 -115.293 3.984 -3.988 re S Q
0.792157 0.388235 0 rg
86.605 108.327 3.984 -3.988 re f
1 0.498039 0 rg
q 1 0 0 1 0 236.343002 cm
86.605 -128.016 3.984 -3.988 re S Q
0.792157 0.388235 0 rg
135.934 98.312 3.984 -3.984 re f
1 0.498039 0 rg
q 1 0 0 1 0 236.343002 cm
135.934 -138.031 3.984 -3.984 re S Q
0.792157 0.388235 0 rg
185.262 91.105 3.984 -3.984 re f
1 0.498039 0 rg
q 1 0 0 1 0 236.343002 cm
185.262 -145.238 3.984 -3.984 re S Q
0.792157 0.388235 0 rg
234.598 91.628 3.984 -3.984 re f
1 0.498039 0 rg
q 1 0 0 1 0 236.343002 cm
234.598 -144.715 3.984 -3.984 re S Q
0.156863 0.6 0.780392 rg
41.27 152.581 m 41.27 153.683 40.379 154.573 39.277 154.573 c 38.176 154.573
 37.285 153.683 37.285 152.581 c 37.285 151.48 38.176 150.589 39.277 150.589
 c 40.379 150.589 41.27 151.48 41.27 152.581 c h
37.867 151.171 m 40.688 153.991 l 37.867 153.991 m 40.688 151.171 l f
0.258824 0.509804 0.631373 rg
q 1 0 0 1 0 236.343002 cm
41.27 -83.762 m 41.27 -82.66 40.379 -81.77 39.277 -81.77 c 38.176 -81.77
 37.285 -82.66 37.285 -83.762 c 37.285 -84.863 38.176 -85.754 39.277 -85.754
 c 40.379 -85.754 41.27 -84.863 41.27 -83.762 c h
37.867 -85.172 m 40.688 -82.352 l 37.867 -82.352 m 40.688 -85.172 l S Q
0.156863 0.6 0.780392 rg
90.59 140.07 m 90.59 141.167 89.699 142.062 88.598 142.062 c 87.496 142.062
 86.605 141.167 86.605 140.07 c 86.605 138.968 87.496 138.077 88.598 138.077
 c 89.699 138.077 90.59 138.968 90.59 140.07 c h
87.188 138.659 m 90.008 141.476 l 87.188 141.476 m 90.008 138.659 l f
0.258824 0.509804 0.631373 rg
q 1 0 0 1 0 236.343002 cm
90.59 -96.273 m 90.59 -95.176 89.699 -94.281 88.598 -94.281 c 87.496 -94.281
 86.605 -95.176 86.605 -96.273 c 86.605 -97.375 87.496 -98.266 88.598 -98.266
 c 89.699 -98.266 90.59 -97.375 90.59 -96.273 c h
87.188 -97.684 m 90.008 -94.867 l 87.188 -94.867 m 90.008 -97.684 l S Q
0.156863 0.6 0.780392 rg
139.918 127.816 m 139.918 128.917 139.027 129.808 137.926 129.808 c 136.824
 129.808 135.934 128.917 135.934 127.816 c 135.934 126.714 136.824 125.823
 137.926 125.823 c 139.027 125.823 139.918 126.714 139.918 127.816 c h
136.516 126.406 m 139.336 129.226 l 136.516 129.226 m 139.336 126.406 l
 f
0.258824 0.509804 0.631373 rg
q 1 0 0 1 0 236.343002 cm
139.918 -108.527 m 139.918 -107.426 139.027 -106.535 137.926 -106.535 c
 136.824 -106.535 135.934 -107.426 135.934 -108.527 c 135.934 -109.629 136.824
 -110.52 137.926 -110.52 c 139.027 -110.52 139.918 -109.629 139.918 -108.527
 c h
136.516 -109.938 m 139.336 -107.117 l 136.516 -107.117 m 139.336 -109.938
 l S Q
0.156863 0.6 0.780392 rg
189.246 116.128 m 189.246 117.226 188.355 118.12 187.254 118.12 c 186.152
 118.12 185.262 117.226 185.262 116.128 c 185.262 115.027 186.152 114.132
 187.254 114.132 c 188.355 114.132 189.246 115.027 189.246 116.128 c h
185.844 114.718 m 188.664 117.534 l 185.844 117.534 m 188.664 114.718 l
 f
0.258824 0.509804 0.631373 rg
q 1 0 0 1 0 236.343002 cm
189.246 -120.215 m 189.246 -119.117 188.355 -118.223 187.254 -118.223 c
 186.152 -118.223 185.262 -119.117 185.262 -120.215 c 185.262 -121.316 186.152
 -122.211 187.254 -122.211 c 188.355 -122.211 189.246 -121.316 189.246 -120.215
 c h
185.844 -121.625 m 188.664 -118.809 l 185.844 -118.809 m 188.664 -121.625
 l S Q
0.156863 0.6 0.780392 rg
238.582 104.781 m 238.582 105.882 237.688 106.773 236.59 106.773 c 235.488
 106.773 234.598 105.882 234.598 104.781 c 234.598 103.679 235.488 102.788
 236.59 102.788 c 237.688 102.788 238.582 103.679 238.582 104.781 c h
235.18 103.37 m 237.996 106.191 l 235.18 106.191 m 237.996 103.37 l f
0.258824 0.509804 0.631373 rg
q 1 0 0 1 0 236.343002 cm
238.582 -131.562 m 238.582 -130.461 237.688 -129.57 236.59 -129.57 c 235.488
 -129.57 234.598 -130.461 234.598 -131.562 c 234.598 -132.664 235.488 -133.555
 236.59 -133.555 c 237.688 -133.555 238.582 -132.664 238.582 -131.562 c 
h
235.18 -132.973 m 237.996 -130.152 l 235.18 -130.152 m 237.996 -132.973
 l S Q
1 0.290196 0.290196 rg
q 1 0 0 1 0 236.343002 cm
39.277 -19.871 m 39.277 -17.879 l 39.277 -19.871 m 41.172 -19.254 l 39.277
 -19.871 m 40.449 -21.48 l 39.277 -19.871 m 38.105 -21.48 l 39.277 -19.871
 m 37.383 -19.254 l S Q
q 1 0 0 1 0 236.343002 cm
88.598 -33.832 m 88.598 -31.84 l 88.598 -33.832 m 90.492 -33.219 l 88.598
 -33.832 m 89.77 -35.445 l 88.598 -33.832 m 87.426 -35.445 l 88.598 -33.832
 m 86.703 -33.219 l S Q
q 1 0 0 1 0 236.343002 cm
137.926 -47.793 m 137.926 -45.801 l 137.926 -47.793 m 139.82 -47.18 l 137.926
 -47.793 m 139.098 -49.406 l 137.926 -47.793 m 136.754 -49.406 l 137.926
 -47.793 m 136.031 -47.18 l S Q
q 1 0 0 1 0 236.343002 cm
187.254 -61.758 m 187.254 -59.766 l 187.254 -61.758 m 189.148 -61.141 l
 187.254 -61.758 m 188.426 -63.371 l 187.254 -61.758 m 186.082 -63.371 l
 187.254 -61.758 m 185.359 -61.141 l S Q
q 1 0 0 1 0 236.343002 cm
236.59 -75.723 m 236.59 -73.73 l 236.59 -75.723 m 238.484 -75.109 l 236.59
 -75.723 m 237.762 -77.336 l 236.59 -75.723 m 235.418 -77.336 l 236.59 -75.723
 m 234.695 -75.109 l S Q
0 g
112.215 4.87 m 112.215 5.136 l 112.043 5.136 l 111.418 5.136 111.402 5.214
 111.402 5.511 c 111.402 9.667 l 111.402 9.964 111.418 10.042 112.043 10.042
 c 112.215 10.042 l 112.215 10.308 l 110.871 10.308 l 110.652 10.308 110.637
 10.292 110.574 10.152 c 108.73 5.62 l 106.887 10.136 l 106.809 10.292 106.809
 10.308 106.59 10.308 c 105.246 10.308 l 105.246 10.042 l 105.418 10.042
 l 106.027 10.042 106.043 9.964 106.043 9.667 c 106.043 5.73 l 106.043 5.511
 106.043 5.136 105.246 5.136 c 105.246 4.87 l 105.605 4.902 105.98 4.902
 106.184 4.902 c 106.387 4.902 106.762 4.902 107.121 4.87 c 107.121 5.136
 l 106.324 5.136 106.324 5.511 106.324 5.73 c 106.324 9.964 l 108.34 5.058
 l 108.387 4.964 108.418 4.87 108.527 4.87 c 108.637 4.87 108.668 4.964 
108.715 5.058 c 110.746 10.027 l 110.746 5.511 l 110.746 5.214 110.73 5.136
 110.121 5.136 c 109.949 5.136 l 109.949 4.87 l 111.074 4.902 l h
112.215 4.87 m f
117.891 8.823 m 117.891 9.605 117.047 10.308 115.906 10.308 c 112.969 10.308
 l 112.969 10.042 l 113.156 10.042 l 113.766 10.042 113.781 9.964 113.781
 9.667 c 113.781 5.511 l 113.781 5.214 113.766 5.136 113.156 5.136 c 112.969
 5.136 l 112.969 4.87 l 114.141 4.902 l 115.312 4.87 l 115.312 5.136 l 115.141
 5.136 l 114.531 5.136 114.516 5.214 114.516 5.511 c 114.516 7.355 l 115.969
 7.355 l 116.938 7.355 117.891 7.98 117.891 8.823 c h
117.062 8.823 m 117.062 8.48 117.062 7.589 115.703 7.589 c 114.484 7.589
 l 114.484 9.73 l 114.484 9.995 114.5 10.042 114.875 10.042 c 115.703 10.042
 l 117.062 10.042 117.062 9.183 117.062 8.823 c h
117.062 8.823 m f
121.102 4.87 m 121.102 5.136 l 120.914 5.136 l 120.273 5.136 120.258 5.214
 120.258 5.511 c 120.258 9.667 l 120.258 9.964 120.273 10.042 120.914 10.042
 c 121.102 10.042 l 121.102 10.308 l 119.883 10.292 l 118.68 10.308 l 118.68
 10.042 l 118.867 10.042 l 119.492 10.042 119.523 9.964 119.523 9.667 c 
119.523 5.511 l 119.523 5.214 119.492 5.136 118.867 5.136 c 118.68 5.136
 l 118.68 4.87 l 119.883 4.902 l h
121.102 4.87 m f
128.66 6.589 m 128.66 7.589 127.848 8.386 126.879 8.386 c 126.566 8.386
 126.113 8.308 125.707 7.886 c 125.707 8.386 l 124.52 8.292 l 124.52 8.027
 l 125.082 8.027 125.129 7.98 125.129 7.652 c 125.129 3.948 l 125.129 3.589
 125.02 3.589 124.52 3.589 c 124.52 3.323 l 124.863 3.355 125.207 3.355 
125.426 3.355 c 125.66 3.355 125.988 3.355 126.332 3.323 c 126.332 3.589
 l 125.816 3.589 125.723 3.589 125.723 3.948 c 125.723 5.261 l 126.098 4.855
 126.504 4.792 126.77 4.792 c 127.77 4.792 128.66 5.573 128.66 6.589 c h
127.941 6.589 m 127.941 5.683 127.363 5.011 126.723 5.011 c 126.441 5.011
 126.082 5.136 125.816 5.527 c 125.723 5.667 125.723 5.683 125.723 5.823
 c 125.723 7.527 l 125.91 7.839 126.316 8.136 126.816 8.136 c 127.426 8.136
 127.941 7.464 127.941 6.589 c h
127.941 6.589 m f
132.004 7.886 m 132.004 8.167 131.754 8.386 131.395 8.386 c 130.879 8.386
 130.52 7.995 130.363 7.542 c 130.348 7.542 l 130.348 8.386 l 129.223 8.292
 l 129.223 8.027 l 129.77 8.027 129.832 7.98 129.832 7.589 c 129.832 5.495
 l 129.832 5.136 129.723 5.136 129.223 5.136 c 129.223 4.87 l 129.535 4.902
 129.973 4.902 130.16 4.902 c 130.629 4.902 130.645 4.902 131.16 4.87 c 
131.16 5.136 l 131.004 5.136 l 130.426 5.136 130.41 5.214 130.41 5.511 c
 130.41 6.683 l 130.41 7.292 130.66 8.152 131.426 8.167 c 131.379 8.136 
131.285 8.073 131.285 7.886 c 131.285 7.636 131.488 7.527 131.645 7.527 
c 131.832 7.527 132.004 7.652 132.004 7.886 c h
132.004 7.886 m f
136.227 6.573 m 136.227 7.558 135.398 8.417 134.352 8.417 c 133.305 8.417
 132.477 7.558 132.477 6.573 c 132.477 5.573 133.336 4.792 134.352 4.792
 c 135.383 4.792 136.227 5.573 136.227 6.573 c h
135.523 6.636 m 135.523 6.277 135.508 5.839 135.273 5.495 c 135.07 5.183
 134.711 5.042 134.352 5.042 c 133.93 5.042 133.586 5.245 133.414 5.527 
c 133.211 5.855 133.195 6.245 133.195 6.636 c 133.195 6.948 133.195 7.417
 133.43 7.761 c 133.648 8.042 133.977 8.198 134.352 8.198 c 134.773 8.198
 135.117 7.995 135.289 7.73 c 135.508 7.386 135.523 6.964 135.523 6.636 
c h
135.523 6.636 m f
140.234 5.823 m 140.234 5.917 140.125 5.917 140.109 5.917 c 140.047 5.917
 140.016 5.917 139.984 5.839 c 139.938 5.667 139.703 5.042 138.906 5.042
 c 138.422 5.042 137.703 5.417 137.703 6.605 c 137.703 7.745 138.297 8.183
 138.875 8.183 c 138.953 8.183 139.375 8.183 139.656 8.027 c 139.422 7.964
 139.391 7.777 139.391 7.683 c 139.391 7.464 139.547 7.308 139.766 7.308
 c 139.984 7.308 140.141 7.448 140.141 7.698 c 140.141 8.183 139.609 8.417
 138.859 8.417 c 137.75 8.417 137 7.542 137 6.589 c 137 5.573 137.828 4.792
 138.828 4.792 c 139.953 4.792 140.234 5.73 140.234 5.823 c h
140.234 5.823 m f
143.996 5.823 m 143.996 5.855 143.965 5.933 143.871 5.933 c 143.777 5.933
 143.762 5.886 143.746 5.839 c 143.465 5.058 142.777 5.042 142.637 5.042
 c 142.277 5.042 141.902 5.198 141.668 5.573 c 141.434 5.933 141.434 6.448
 141.434 6.683 c 143.777 6.683 l 143.949 6.683 143.996 6.683 143.996 6.87
 c 143.996 7.573 143.605 8.417 142.48 8.417 c 141.496 8.417 140.715 7.605
 140.715 6.62 c 140.715 5.589 141.574 4.792 142.59 4.792 c 143.59 4.792 
143.996 5.636 143.996 5.823 c h
143.449 6.902 m 141.434 6.902 l 141.512 8.011 142.184 8.198 142.48 8.198
 c 143.418 8.198 143.449 7.073 143.449 6.902 c h
143.449 6.902 m f
147.289 5.902 m 147.289 6.277 147.07 6.839 146.117 7.011 c 146.055 7.027
 145.602 7.105 145.57 7.105 c 145.32 7.167 144.945 7.339 144.945 7.652 c
 144.945 7.886 145.133 8.23 145.883 8.23 c 146.773 8.23 146.82 7.573 146.836
 7.355 c 146.836 7.292 146.898 7.261 146.945 7.261 c 147.086 7.261 147.086
 7.323 147.086 7.464 c 147.086 8.214 l 147.086 8.339 147.086 8.417 146.977
 8.417 c 146.93 8.417 146.914 8.417 146.789 8.292 c 146.773 8.292 146.695
 8.214 146.68 8.214 c 146.68 8.214 146.648 8.214 146.602 8.245 c 146.477
 8.339 146.242 8.417 145.883 8.417 c 144.773 8.417 144.523 7.823 144.523
 7.433 c 144.523 7.042 144.82 6.808 144.836 6.777 c 145.164 6.542 145.336
 6.511 145.883 6.417 c 146.258 6.339 146.867 6.23 146.867 5.698 c 146.867
 5.386 146.664 5.011 145.93 5.011 c 145.117 5.011 144.883 5.636 144.789 
6.058 c 144.758 6.167 144.742 6.198 144.648 6.198 c 144.523 6.198 144.523
 6.136 144.523 5.98 c 144.523 4.995 l 144.523 4.87 144.523 4.792 144.617
 4.792 c 144.68 4.792 144.68 4.792 144.82 4.948 c 144.867 4.995 144.945 
5.089 144.992 5.136 c 145.352 4.808 145.727 4.792 145.93 4.792 c 146.945
 4.792 147.289 5.37 147.289 5.902 c h
147.289 5.902 m f
150.633 5.902 m 150.633 6.277 150.414 6.839 149.461 7.011 c 149.398 7.027
 148.945 7.105 148.914 7.105 c 148.664 7.167 148.289 7.339 148.289 7.652
 c 148.289 7.886 148.477 8.23 149.227 8.23 c 150.117 8.23 150.164 7.573 
150.18 7.355 c 150.18 7.292 150.242 7.261 150.289 7.261 c 150.43 7.261 150.43
 7.323 150.43 7.464 c 150.43 8.214 l 150.43 8.339 150.43 8.417 150.32 8.417
 c 150.273 8.417 150.258 8.417 150.133 8.292 c 150.117 8.292 150.039 8.214
 150.023 8.214 c 150.023 8.214 149.992 8.214 149.945 8.245 c 149.82 8.339
 149.586 8.417 149.227 8.417 c 148.117 8.417 147.867 7.823 147.867 7.433
 c 147.867 7.042 148.164 6.808 148.18 6.777 c 148.508 6.542 148.68 6.511
 149.227 6.417 c 149.602 6.339 150.211 6.23 150.211 5.698 c 150.211 5.386
 150.008 5.011 149.273 5.011 c 148.461 5.011 148.227 5.636 148.133 6.058
 c 148.102 6.167 148.086 6.198 147.992 6.198 c 147.867 6.198 147.867 6.136
 147.867 5.98 c 147.867 4.995 l 147.867 4.87 147.867 4.792 147.961 4.792
 c 148.023 4.792 148.023 4.792 148.164 4.948 c 148.211 4.995 148.289 5.089
 148.336 5.136 c 148.695 4.808 149.07 4.792 149.273 4.792 c 150.289 4.792
 150.633 5.37 150.633 5.902 c h
150.633 5.902 m f
154.441 5.823 m 154.441 5.855 154.41 5.933 154.316 5.933 c 154.223 5.933
 154.207 5.886 154.191 5.839 c 153.91 5.058 153.223 5.042 153.082 5.042 
c 152.723 5.042 152.348 5.198 152.113 5.573 c 151.879 5.933 151.879 6.448
 151.879 6.683 c 154.223 6.683 l 154.395 6.683 154.441 6.683 154.441 6.87
 c 154.441 7.573 154.051 8.417 152.926 8.417 c 151.941 8.417 151.16 7.605
 151.16 6.62 c 151.16 5.589 152.02 4.792 153.035 4.792 c 154.035 4.792 154.441
 5.636 154.441 5.823 c h
153.895 6.902 m 151.879 6.902 l 151.957 8.011 152.629 8.198 152.926 8.198
 c 153.863 8.198 153.895 7.073 153.895 6.902 c h
153.895 6.902 m f
157.734 5.902 m 157.734 6.277 157.516 6.839 156.562 7.011 c 156.5 7.027
 156.047 7.105 156.016 7.105 c 155.766 7.167 155.391 7.339 155.391 7.652
 c 155.391 7.886 155.578 8.23 156.328 8.23 c 157.219 8.23 157.266 7.573 
157.281 7.355 c 157.281 7.292 157.344 7.261 157.391 7.261 c 157.531 7.261
 157.531 7.323 157.531 7.464 c 157.531 8.214 l 157.531 8.339 157.531 8.417
 157.422 8.417 c 157.375 8.417 157.359 8.417 157.234 8.292 c 157.219 8.292
 157.141 8.214 157.125 8.214 c 157.125 8.214 157.094 8.214 157.047 8.245
 c 156.922 8.339 156.688 8.417 156.328 8.417 c 155.219 8.417 154.969 7.823
 154.969 7.433 c 154.969 7.042 155.266 6.808 155.281 6.777 c 155.609 6.542
 155.781 6.511 156.328 6.417 c 156.703 6.339 157.312 6.23 157.312 5.698 
c 157.312 5.386 157.109 5.011 156.375 5.011 c 155.562 5.011 155.328 5.636
 155.234 6.058 c 155.203 6.167 155.188 6.198 155.094 6.198 c 154.969 6.198
 154.969 6.136 154.969 5.98 c 154.969 4.995 l 154.969 4.87 154.969 4.792
 155.062 4.792 c 155.125 4.792 155.125 4.792 155.266 4.948 c 155.312 4.995
 155.391 5.089 155.438 5.136 c 155.797 4.808 156.172 4.792 156.375 4.792
 c 157.391 4.792 157.734 5.37 157.734 5.902 c h
157.734 5.902 m f
1 g
32.812 82.179 76.477 -49.812 re f
0 g
q 1 0 0 1 0 236.343002 cm
32.812 -154.164 76.477 -49.812 re S Q
0 0.498039 0.498039 rg
q 1 0 0 1 0 236.343002 cm
35.996 -161.887 m 53.004 -161.887 l S Q
0 0.388235 0.388235 rg
46.492 74.456 m 46.492 75.558 45.598 76.448 44.5 76.448 c 43.398 76.448
 42.508 75.558 42.508 74.456 c 42.508 73.355 43.398 72.464 44.5 72.464 c
 45.598 72.464 46.492 73.355 46.492 74.456 c h
46.492 74.456 m f
0 0.498039 0.498039 rg
q 1 0 0 1 0 236.343002 cm
46.492 -161.887 m 46.492 -160.785 45.598 -159.895 44.5 -159.895 c 43.398
 -159.895 42.508 -160.785 42.508 -161.887 c 42.508 -162.988 43.398 -163.879
 44.5 -163.879 c 45.598 -163.879 46.492 -162.988 46.492 -161.887 c h
46.492 -161.887 m S Q
0 g
69.723 75.995 m 69.941 77.495 l 69.941 77.605 69.848 77.605 69.707 77.605
 c 65.004 77.605 l 64.816 77.605 64.785 77.605 64.738 77.433 c 64.254 76.058
 l 64.238 76.011 64.207 75.948 64.207 75.902 c 64.207 75.839 64.27 75.792
 64.332 75.792 c 64.426 75.792 64.441 75.839 64.488 75.964 c 64.941 77.245
 65.16 77.339 66.379 77.339 c 66.691 77.339 l 66.926 77.339 66.941 77.323
 66.941 77.261 c 66.941 77.245 66.91 77.089 66.895 77.058 c 65.848 72.87
 l 65.77 72.558 65.754 72.48 64.926 72.48 c 64.66 72.48 64.582 72.48 64.582
 72.323 c 64.582 72.323 64.582 72.214 64.723 72.214 c 65.707 72.245 l 66.379
 72.245 l 67.379 72.214 l 67.441 72.214 67.566 72.214 67.566 72.37 c 67.566
 72.48 67.473 72.48 67.27 72.48 c 67.066 72.48 67.004 72.48 66.801 72.495
 c 66.551 72.511 66.52 72.542 66.52 72.652 c 66.52 72.683 66.52 72.714 66.551
 72.792 c 67.613 77.042 l 67.676 77.323 67.691 77.339 68.02 77.339 c 68.613
 77.339 l 69.441 77.339 69.535 77.073 69.535 76.683 c 69.535 76.48 69.488
 76.136 69.488 76.089 c 69.473 76.011 69.457 75.917 69.457 75.917 c 69.457
 75.823 69.535 75.792 69.582 75.792 c 69.676 75.792 69.707 75.839 69.723
 75.995 c h
69.723 75.995 m f
71.34 71.593 m 71.34 71.921 l 71.105 71.921 l 71.105 71.609 l 71.105 71.187
 70.887 70.999 70.668 70.999 c 70.23 70.999 70.23 71.484 70.23 71.593 c 
70.23 73.187 l 71.215 73.187 l 71.215 73.421 l 70.23 73.421 l 70.23 74.531
 l 70.012 74.531 l 70.012 73.984 69.746 73.406 69.152 73.374 c 69.152 73.187
 l 69.746 73.187 l 69.746 71.593 l 69.746 70.968 70.215 70.781 70.621 70.781
 c 71.027 70.781 71.34 71.109 71.34 71.593 c h
71.34 71.593 m f
75.172 72.124 m 75.172 72.859 74.5 73.515 73.641 73.515 c 72.766 73.515
 72.094 72.859 72.094 72.124 c 72.094 71.39 72.781 70.781 73.641 70.781 
c 74.5 70.781 75.172 71.39 75.172 72.124 c h
74.609 72.171 m 74.609 71.89 74.609 70.999 73.641 70.999 c 72.672 70.999
 72.672 71.89 72.672 72.171 c 72.672 72.359 72.672 72.765 72.891 73.015 
c 73.094 73.234 73.344 73.327 73.641 73.327 c 73.922 73.327 74.188 73.234
 74.391 73.015 c 74.609 72.765 74.609 72.359 74.609 72.171 c h
74.609 72.171 m f
77.871 71.593 m 77.871 71.921 l 77.637 71.921 l 77.637 71.609 l 77.637 
71.187 77.418 70.999 77.199 70.999 c 76.762 70.999 76.762 71.484 76.762 
71.593 c 76.762 73.187 l 77.746 73.187 l 77.746 73.421 l 76.762 73.421 l
 76.762 74.531 l 76.543 74.531 l 76.543 73.984 76.277 73.406 75.684 73.374
 c 75.684 73.187 l 76.277 73.187 l 76.277 71.593 l 76.277 70.968 76.746 
70.781 77.152 70.781 c 77.559 70.781 77.871 71.109 77.871 71.593 c h
77.871 71.593 m f
81.812 71.374 m 81.812 71.718 l 81.594 71.718 l 81.594 71.39 l 81.594 71.327
 81.594 71.062 81.359 71.062 c 81.125 71.062 81.125 71.327 81.125 71.39 
c 81.125 72.624 l 81.125 73.187 80.562 73.515 79.891 73.515 c 79.594 73.515
 78.891 73.484 78.891 72.984 c 78.891 72.812 79 72.687 79.188 72.687 c 79.359
 72.687 79.469 72.812 79.469 72.968 c 79.469 73.077 79.422 73.187 79.312
 73.234 c 79.516 73.327 79.812 73.327 79.875 73.327 c 80.297 73.327 80.625
 73.062 80.625 72.609 c 80.625 72.452 l 80.359 72.452 79.875 72.437 79.438
 72.281 c 79.047 72.14 78.672 71.874 78.672 71.468 c 78.672 70.937 79.297
 70.781 79.766 70.781 c 80.266 70.781 80.562 71.031 80.703 71.265 c 80.75
 70.952 80.938 70.812 81.156 70.812 c 81.172 70.812 81.812 70.812 81.812
 71.374 c h
80.625 71.687 m 80.625 71.077 80.016 70.968 79.828 70.968 c 79.5 70.968
 79.188 71.171 79.188 71.468 c 79.188 71.812 79.516 72.249 80.625 72.281
 c h
80.625 71.687 m f
83.793 70.843 m 83.793 71.077 l 83.387 71.077 83.324 71.077 83.324 71.327
 c 83.324 74.999 l 82.387 74.937 l 82.387 74.702 l 82.793 74.702 82.855 
74.656 82.855 74.359 c 82.855 71.327 l 82.855 71.077 82.793 71.077 82.387
 71.077 c 82.387 70.843 l 83.09 70.874 l 83.324 70.874 83.559 70.859 83.793
 70.843 c h
83.793 70.843 m f
89.578 70.23 m 89.578 70.589 l 88.781 70.589 l 88.781 77.823 l 89.578 77.823
 l 89.578 78.183 l 88.406 78.183 l 88.406 70.23 l h
89.578 70.23 m f
92.852 73.245 m 92.852 73.62 92.633 74.183 91.68 74.355 c 91.617 74.37 
91.164 74.448 91.133 74.448 c 90.883 74.511 90.508 74.683 90.508 74.995 
c 90.508 75.23 90.695 75.573 91.445 75.573 c 92.336 75.573 92.383 74.917
 92.398 74.698 c 92.398 74.636 92.461 74.605 92.508 74.605 c 92.648 74.605
 92.648 74.667 92.648 74.808 c 92.648 75.558 l 92.648 75.683 92.648 75.761
 92.539 75.761 c 92.492 75.761 92.477 75.761 92.352 75.636 c 92.336 75.636
 92.258 75.558 92.242 75.558 c 92.242 75.558 92.211 75.558 92.164 75.589
 c 92.039 75.683 91.805 75.761 91.445 75.761 c 90.336 75.761 90.086 75.167
 90.086 74.777 c 90.086 74.386 90.383 74.152 90.398 74.12 c 90.727 73.886
 90.898 73.855 91.445 73.761 c 91.82 73.683 92.43 73.573 92.43 73.042 c 
92.43 72.73 92.227 72.355 91.492 72.355 c 90.68 72.355 90.445 72.98 90.352
 73.402 c 90.32 73.511 90.305 73.542 90.211 73.542 c 90.086 73.542 90.086
 73.48 90.086 73.323 c 90.086 72.339 l 90.086 72.214 90.086 72.136 90.18
 72.136 c 90.242 72.136 90.242 72.136 90.383 72.292 c 90.43 72.339 90.508
 72.433 90.555 72.48 c 90.914 72.152 91.289 72.136 91.492 72.136 c 92.508
 72.136 92.852 72.714 92.852 73.245 c h
92.852 73.245 m f
94.504 70.23 m 94.504 78.183 l 93.332 78.183 l 93.332 77.823 l 94.129 77.823
 l 94.129 70.589 l 93.332 70.589 l 93.332 70.23 l h
94.504 70.23 m f
1 0.498039 0 rg
q 1 0 0 1 0 236.343002 cm
35.996 -173.344 m 53.004 -173.344 l S Q
0.792157 0.388235 0 rg
42.508 64.991 3.984 -3.984 re f
1 0.498039 0 rg
q 1 0 0 1 0 236.343002 cm
42.508 -171.352 3.984 -3.984 re S Q
0 g
60.914 64.538 m 61.133 66.038 l 61.133 66.148 61.039 66.148 60.898 66.148
 c 56.195 66.148 l 56.008 66.148 55.977 66.148 55.93 65.976 c 55.445 64.601
 l 55.43 64.554 55.398 64.491 55.398 64.445 c 55.398 64.382 55.461 64.335
 55.523 64.335 c 55.617 64.335 55.633 64.382 55.68 64.507 c 56.133 65.788
 56.352 65.882 57.57 65.882 c 57.883 65.882 l 58.117 65.882 58.133 65.866
 58.133 65.804 c 58.133 65.788 58.102 65.632 58.086 65.601 c 57.039 61.413
 l 56.961 61.101 56.945 61.023 56.117 61.023 c 55.852 61.023 55.773 61.023
 55.773 60.866 c 55.773 60.866 55.773 60.757 55.914 60.757 c 56.898 60.788
 l 57.57 60.788 l 58.57 60.757 l 58.633 60.757 58.758 60.757 58.758 60.913
 c 58.758 61.023 58.664 61.023 58.461 61.023 c 58.258 61.023 58.195 61.023
 57.992 61.038 c 57.742 61.054 57.711 61.085 57.711 61.195 c 57.711 61.226
 57.711 61.257 57.742 61.335 c 58.805 65.585 l 58.867 65.866 58.883 65.882
 59.211 65.882 c 59.805 65.882 l 60.633 65.882 60.727 65.616 60.727 65.226
 c 60.727 65.023 60.68 64.679 60.68 64.632 c 60.664 64.554 60.648 64.46 
60.648 64.46 c 60.648 64.366 60.727 64.335 60.773 64.335 c 60.867 64.335
 60.898 64.382 60.914 64.538 c h
60.914 64.538 m f
65.156 59.386 m 65.156 59.62 l 65.031 59.62 l 64.609 59.62 64.578 59.683
 64.5 59.839 c 62.984 63.511 l 62.938 63.636 62.891 63.652 62.812 63.652
 c 62.688 63.652 62.656 63.605 62.625 63.511 c 61.172 60.011 l 61.047 59.698
 60.766 59.62 60.453 59.62 c 60.453 59.386 l 60.656 59.417 60.875 59.417
 61.094 59.417 c 61.328 59.417 61.734 59.386 61.844 59.386 c 61.844 59.62
 l 61.531 59.62 61.391 59.777 61.391 59.902 c 61.391 59.933 61.406 59.948
 61.422 60.027 c 61.719 60.73 l 63.516 60.73 l 63.875 59.87 l 63.891 59.839
 63.906 59.808 63.906 59.777 c 63.906 59.62 63.562 59.62 63.391 59.62 c 
63.391 59.386 l 64.328 59.417 l h
63.422 60.964 m 61.812 60.964 l 62.625 62.902 l h
63.422 60.964 m f
68.316 61.73 m 68.316 61.964 l 68.316 61.964 68.035 61.948 67.832 61.948
 c 67.645 61.948 67.301 61.964 67.27 61.964 c 67.27 61.73 l 67.52 61.714
 67.52 61.527 67.52 61.511 c 67.52 61.433 67.488 61.37 67.473 61.323 c 66.77
 59.87 l 65.988 61.48 l 65.973 61.511 65.957 61.558 65.957 61.605 c 65.957
 61.73 66.176 61.73 66.27 61.73 c 66.27 61.964 l 65.566 61.948 l 65.441 
61.948 65.082 61.948 64.941 61.964 c 64.941 61.73 l 65.301 61.73 65.363 
61.714 65.441 61.527 c 66.441 59.464 l 66.504 59.339 66.551 59.323 66.629
 59.323 c 66.754 59.323 66.785 59.386 66.816 59.464 c 67.738 61.37 l 67.879
 61.667 68.098 61.73 68.316 61.73 c h
68.316 61.73 m f
72.02 61.777 m 72.02 61.902 71.91 62.089 71.645 62.089 c 71.395 62.089 
71.113 61.995 70.91 61.808 c 70.707 61.948 70.441 62.027 70.191 62.027 c
 69.535 62.027 69.066 61.605 69.066 61.136 c 69.066 60.948 69.145 60.745
 69.348 60.542 c 69.223 60.37 69.176 60.198 69.176 60.058 c 69.176 59.73
 69.395 59.558 69.426 59.527 c 69.191 59.464 68.832 59.261 68.832 58.933
 c 68.832 58.464 69.551 58.152 70.379 58.152 c 71.145 58.152 71.926 58.433
 71.926 58.948 c 71.926 59.089 71.879 59.48 71.395 59.667 c 71.051 59.823
 70.723 59.823 70.16 59.823 c 70.004 59.823 69.785 59.823 69.723 59.823 
c 69.566 59.855 69.426 59.995 69.426 60.214 c 69.426 60.339 69.488 60.417
 69.504 60.433 c 69.645 60.355 69.879 60.261 70.176 60.261 c 70.848 60.261
 71.301 60.683 71.301 61.136 c 71.301 61.48 71.051 61.698 71.051 61.714 
c 71.316 61.886 71.566 61.902 71.66 61.902 c 71.645 61.87 71.613 61.855 
71.613 61.761 c 71.613 61.667 71.691 61.573 71.816 61.573 c 71.957 61.573
 72.02 61.667 72.02 61.777 c h
70.801 61.152 m 70.801 61.027 70.801 60.464 70.191 60.464 c 69.691 60.464
 69.566 60.823 69.566 61.136 c 69.566 61.245 69.566 61.823 70.176 61.823
 c 70.707 61.823 70.801 61.402 70.801 61.152 c h
71.535 58.933 m 71.535 58.636 71.051 58.355 70.379 58.355 c 69.723 58.355
 69.223 58.62 69.223 58.933 c 69.223 59.089 69.348 59.386 69.848 59.386 
c 70.52 59.386 l 70.707 59.386 71.535 59.386 71.535 58.933 c h
71.535 58.933 m f
75.77 60.48 m 75.77 60.902 75.535 61.198 75.457 61.277 c 75.145 61.589 
74.973 61.62 74.223 61.777 c 73.66 61.902 l 73.348 62.011 73.066 62.277 
73.066 62.605 c 73.066 63.011 73.457 63.386 74.051 63.386 c 74.363 63.386
 74.66 63.292 74.91 63.105 c 75.27 62.823 75.332 62.386 75.348 62.245 c 
75.363 62.152 75.379 62.12 75.473 62.12 c 75.582 62.12 75.582 62.167 75.582
 62.277 c 75.582 63.433 l 75.582 63.527 75.582 63.605 75.488 63.605 c 75.457
 63.605 75.426 63.605 75.379 63.527 c 75.16 63.183 l 74.816 63.511 74.379
 63.605 74.035 63.605 c 73.254 63.605 72.676 63.073 72.676 62.448 c 72.676
 62.152 72.816 61.886 73.035 61.683 c 73.301 61.433 73.504 61.386 74.176
 61.245 c 74.801 61.12 74.941 61.089 75.129 60.917 c 75.191 60.839 75.395
 60.652 75.395 60.339 c 75.395 59.917 75.02 59.495 74.395 59.495 c 73.879
 59.495 72.941 59.652 72.895 60.605 c 72.895 60.698 72.895 60.745 72.801
 60.745 c 72.676 60.745 72.676 60.683 72.676 60.573 c 72.676 59.433 l 72.676
 59.323 72.676 59.261 72.77 59.261 c 72.832 59.261 72.848 59.277 72.879 
59.339 c 72.895 59.355 73.02 59.542 73.098 59.667 c 73.535 59.308 74.113
 59.261 74.395 59.261 c 75.223 59.261 75.77 59.855 75.77 60.48 c h
75.77 60.48 m f
79.605 60.667 m 79.605 61.402 78.934 62.058 78.074 62.058 c 77.199 62.058
 76.527 61.402 76.527 60.667 c 76.527 59.933 77.215 59.323 78.074 59.323
 c 78.934 59.323 79.605 59.933 79.605 60.667 c h
79.043 60.714 m 79.043 60.433 79.043 59.542 78.074 59.542 c 77.105 59.542
 77.105 60.433 77.105 60.714 c 77.105 60.902 77.105 61.308 77.324 61.558
 c 77.527 61.777 77.777 61.87 78.074 61.87 c 78.355 61.87 78.621 61.777 
78.824 61.558 c 79.043 61.308 79.043 60.902 79.043 60.714 c h
79.043 60.714 m f
81.695 59.386 m 81.695 59.62 l 81.289 59.62 81.227 59.62 81.227 59.87 c
 81.227 63.542 l 80.289 63.48 l 80.289 63.245 l 80.695 63.245 80.758 63.198
 80.758 62.902 c 80.758 59.87 l 80.758 59.62 80.695 59.62 80.289 59.62 c
 80.289 59.386 l 80.992 59.417 l 81.227 59.417 81.461 59.402 81.695 59.386
 c h
81.695 59.386 m f
85.609 61.73 m 85.609 61.964 l 85.609 61.964 85.328 61.948 85.125 61.948
 c 84.938 61.948 84.594 61.964 84.562 61.964 c 84.562 61.73 l 84.812 61.714
 84.812 61.527 84.812 61.511 c 84.812 61.433 84.781 61.37 84.766 61.323 
c 84.062 59.87 l 83.281 61.48 l 83.266 61.511 83.25 61.558 83.25 61.605 
c 83.25 61.73 83.469 61.73 83.562 61.73 c 83.562 61.964 l 82.859 61.948 
l 82.734 61.948 82.375 61.948 82.234 61.964 c 82.234 61.73 l 82.594 61.73
 82.656 61.714 82.734 61.527 c 83.734 59.464 l 83.797 59.339 83.844 59.323
 83.922 59.323 c 84.047 59.323 84.078 59.386 84.109 59.464 c 85.031 61.37
 l 85.172 61.667 85.391 61.73 85.609 61.73 c h
85.609 61.73 m f
91.328 58.773 m 91.328 59.132 l 90.531 59.132 l 90.531 66.366 l 91.328 
66.366 l 91.328 66.726 l 90.156 66.726 l 90.156 58.773 l h
91.328 58.773 m f
98.383 60.757 m 98.383 61.023 l 97.867 61.023 97.773 61.023 97.773 61.382
 c 97.773 63.179 l 97.773 63.82 97.492 64.273 96.633 64.273 c 95.898 64.273
 95.523 63.773 95.398 63.538 c 95.258 64.116 94.805 64.273 94.289 64.273
 c 93.508 64.273 93.148 63.726 93.039 63.507 c 93.039 64.273 l 91.883 64.179
 l 91.883 63.913 l 92.43 63.913 92.492 63.866 92.492 63.476 c 92.492 61.382
 l 92.492 61.023 92.398 61.023 91.883 61.023 c 91.883 60.757 l 92.227 60.788
 92.57 60.788 92.789 60.788 c 93.023 60.788 93.352 60.788 93.695 60.757 
c 93.695 61.023 l 93.195 61.023 93.086 61.023 93.086 61.382 c 93.086 62.82
 l 93.086 63.663 93.727 64.054 94.227 64.054 c 94.742 64.054 94.836 63.648
 94.836 63.21 c 94.836 61.382 l 94.836 61.023 94.727 61.023 94.227 61.023
 c 94.227 60.757 l 94.57 60.788 94.914 60.788 95.133 60.788 c 95.367 60.788
 95.695 60.788 96.039 60.757 c 96.039 61.023 l 95.523 61.023 95.43 61.023
 95.43 61.382 c 95.43 62.82 l 95.43 63.663 96.07 64.054 96.57 64.054 c 97.086
 64.054 97.18 63.648 97.18 63.21 c 97.18 61.382 l 97.18 61.023 97.07 61.023
 96.57 61.023 c 96.57 60.757 l 96.914 60.788 97.258 60.788 97.477 60.788
 c 97.711 60.788 98.039 60.788 98.383 60.757 c h
98.383 60.757 m f
101.66 61.788 m 101.66 62.163 101.441 62.726 100.488 62.898 c 100.426 62.913
 99.973 62.991 99.941 62.991 c 99.691 63.054 99.316 63.226 99.316 63.538
 c 99.316 63.773 99.504 64.116 100.254 64.116 c 101.145 64.116 101.191 63.46
 101.207 63.241 c 101.207 63.179 101.27 63.148 101.316 63.148 c 101.457 
63.148 101.457 63.21 101.457 63.351 c 101.457 64.101 l 101.457 64.226 101.457
 64.304 101.348 64.304 c 101.301 64.304 101.285 64.304 101.16 64.179 c 101.145
 64.179 101.066 64.101 101.051 64.101 c 101.051 64.101 101.02 64.101 100.973
 64.132 c 100.848 64.226 100.613 64.304 100.254 64.304 c 99.145 64.304 98.895
 63.71 98.895 63.32 c 98.895 62.929 99.191 62.695 99.207 62.663 c 99.535
 62.429 99.707 62.398 100.254 62.304 c 100.629 62.226 101.238 62.116 101.238
 61.585 c 101.238 61.273 101.035 60.898 100.301 60.898 c 99.488 60.898 99.254
 61.523 99.16 61.945 c 99.129 62.054 99.113 62.085 99.02 62.085 c 98.895
 62.085 98.895 62.023 98.895 61.866 c 98.895 60.882 l 98.895 60.757 98.895
 60.679 98.988 60.679 c 99.051 60.679 99.051 60.679 99.191 60.835 c 99.238
 60.882 99.316 60.976 99.363 61.023 c 99.723 60.695 100.098 60.679 100.301
 60.679 c 101.316 60.679 101.66 61.257 101.66 61.788 c h
101.66 61.788 m f
103.312 58.773 m 103.312 66.726 l 102.141 66.726 l 102.141 66.366 l 102.938
 66.366 l 102.938 59.132 l 102.141 59.132 l 102.141 58.773 l h
103.312 58.773 m f
0.258824 0.509804 0.631373 rg
q 1 0 0 1 0 236.343002 cm
35.996 -184.801 m 53.004 -184.801 l S Q
0.156863 0.6 0.780392 rg
46.492 51.542 m 46.492 52.644 45.598 53.534 44.5 53.534 c 43.398 53.534
 42.508 52.644 42.508 51.542 c 42.508 50.441 43.398 49.55 44.5 49.55 c 45.598
 49.55 46.492 50.441 46.492 51.542 c h
43.09 50.136 m 45.906 52.952 l 43.09 52.952 m 45.906 50.136 l f
0.258824 0.509804 0.631373 rg
q 1 0 0 1 0 236.343002 cm
46.492 -184.801 m 46.492 -183.699 45.598 -182.809 44.5 -182.809 c 43.398
 -182.809 42.508 -183.699 42.508 -184.801 c 42.508 -185.902 43.398 -186.793
 44.5 -186.793 c 45.598 -186.793 46.492 -185.902 46.492 -184.801 c h
43.09 -186.207 m 45.906 -183.391 l 43.09 -183.391 m 45.906 -186.207 l S Q
0 g
63.043 53.081 m 63.262 54.581 l 63.262 54.691 63.168 54.691 63.027 54.691
 c 58.324 54.691 l 58.137 54.691 58.105 54.691 58.059 54.519 c 57.574 53.144
 l 57.559 53.097 57.527 53.034 57.527 52.988 c 57.527 52.925 57.59 52.878
 57.652 52.878 c 57.746 52.878 57.762 52.925 57.809 53.05 c 58.262 54.331
 58.48 54.425 59.699 54.425 c 60.012 54.425 l 60.246 54.425 60.262 54.409
 60.262 54.347 c 60.262 54.331 60.23 54.175 60.215 54.144 c 59.168 49.956
 l 59.09 49.644 59.074 49.566 58.246 49.566 c 57.98 49.566 57.902 49.566
 57.902 49.409 c 57.902 49.409 57.902 49.3 58.043 49.3 c 59.027 49.331 l
 59.699 49.331 l 60.699 49.3 l 60.762 49.3 60.887 49.3 60.887 49.456 c 60.887
 49.566 60.793 49.566 60.59 49.566 c 60.387 49.566 60.324 49.566 60.121 
49.581 c 59.871 49.597 59.84 49.628 59.84 49.738 c 59.84 49.769 59.84 49.8
 59.871 49.878 c 60.934 54.128 l 60.996 54.409 61.012 54.425 61.34 54.425
 c 61.934 54.425 l 62.762 54.425 62.855 54.159 62.855 53.769 c 62.855 53.566
 62.809 53.222 62.809 53.175 c 62.793 53.097 62.777 53.003 62.777 53.003
 c 62.777 52.909 62.855 52.878 62.902 52.878 c 62.996 52.878 63.027 52.925
 63.043 53.081 c h
63.043 53.081 m f
65.723 48.46 m 65.723 48.804 l 65.504 48.804 l 65.504 48.476 l 65.504 48.413
 65.504 48.148 65.27 48.148 c 65.035 48.148 65.035 48.413 65.035 48.476 
c 65.035 49.71 l 65.035 50.273 64.473 50.601 63.801 50.601 c 63.504 50.601
 62.801 50.57 62.801 50.07 c 62.801 49.898 62.91 49.773 63.098 49.773 c 
63.27 49.773 63.379 49.898 63.379 50.054 c 63.379 50.163 63.332 50.273 63.223
 50.32 c 63.426 50.413 63.723 50.413 63.785 50.413 c 64.207 50.413 64.535
 50.148 64.535 49.695 c 64.535 49.538 l 64.27 49.538 63.785 49.523 63.348
 49.366 c 62.957 49.226 62.582 48.96 62.582 48.554 c 62.582 48.023 63.207
 47.866 63.676 47.866 c 64.176 47.866 64.473 48.116 64.613 48.351 c 64.66
 48.038 64.848 47.898 65.066 47.898 c 65.082 47.898 65.723 47.898 65.723
 48.46 c h
64.535 48.773 m 64.535 48.163 63.926 48.054 63.738 48.054 c 63.41 48.054
 63.098 48.257 63.098 48.554 c 63.098 48.898 63.426 49.335 64.535 49.366
 c h
64.535 48.773 m f
68.5 48.695 m 68.5 48.945 68.391 49.116 68.25 49.226 c 68 49.46 67.766 
49.491 67.406 49.554 c 66.953 49.632 66.547 49.695 66.547 50.007 c 66.547
 50.179 66.719 50.429 67.344 50.429 c 67.75 50.429 68.078 50.273 68.109 
49.851 c 68.109 49.773 68.125 49.726 68.219 49.726 c 68.328 49.726 68.328
 49.773 68.328 49.882 c 68.328 50.429 l 68.328 50.538 68.328 50.601 68.234
 50.601 c 68.203 50.601 68.188 50.601 68.109 50.523 c 68.094 50.507 68.078
 50.507 68 50.429 c 67.766 50.585 67.469 50.601 67.344 50.601 c 66.406 50.601
 66.219 50.132 66.219 49.851 c 66.219 49.273 66.922 49.163 67.391 49.085
 c 67.656 49.038 68.172 48.96 68.172 48.57 c 68.172 48.335 68 48.054 67.391
 48.054 c 66.812 48.054 66.578 48.398 66.453 48.851 c 66.438 48.898 66.422
 48.929 66.344 48.929 c 66.219 48.929 66.219 48.882 66.219 48.757 c 66.219
 48.038 l 66.219 47.929 66.219 47.866 66.312 47.866 c 66.359 47.866 66.359
 47.882 66.469 47.976 c 66.609 48.132 l 66.906 47.866 67.266 47.866 67.391
 47.866 c 68.266 47.866 68.5 48.351 68.5 48.695 c h
68.5 48.695 m f
71.418 48.695 m 71.418 48.945 71.309 49.116 71.168 49.226 c 70.918 49.46
 70.684 49.491 70.324 49.554 c 69.871 49.632 69.465 49.695 69.465 50.007
 c 69.465 50.179 69.637 50.429 70.262 50.429 c 70.668 50.429 70.996 50.273
 71.027 49.851 c 71.027 49.773 71.043 49.726 71.137 49.726 c 71.246 49.726
 71.246 49.773 71.246 49.882 c 71.246 50.429 l 71.246 50.538 71.246 50.601
 71.152 50.601 c 71.121 50.601 71.105 50.601 71.027 50.523 c 71.012 50.507
 70.996 50.507 70.918 50.429 c 70.684 50.585 70.387 50.601 70.262 50.601
 c 69.324 50.601 69.137 50.132 69.137 49.851 c 69.137 49.273 69.84 49.163
 70.309 49.085 c 70.574 49.038 71.09 48.96 71.09 48.57 c 71.09 48.335 70.918
 48.054 70.309 48.054 c 69.73 48.054 69.496 48.398 69.371 48.851 c 69.355
 48.898 69.34 48.929 69.262 48.929 c 69.137 48.929 69.137 48.882 69.137 
48.757 c 69.137 48.038 l 69.137 47.929 69.137 47.866 69.23 47.866 c 69.277
 47.866 69.277 47.882 69.387 47.976 c 69.527 48.132 l 69.824 47.866 70.184
 47.866 70.309 47.866 c 71.184 47.866 71.418 48.351 71.418 48.695 c h
71.418 48.695 m f
74.727 48.648 m 74.727 48.679 74.711 48.741 74.617 48.741 c 74.539 48.741
 74.523 48.71 74.508 48.632 c 74.32 48.195 73.867 48.085 73.602 48.085 c
 73.273 48.085 72.992 48.226 72.82 48.445 c 72.602 48.726 72.602 49.116 
72.602 49.288 c 74.555 49.288 l 74.68 49.288 74.727 49.288 74.727 49.429
 c 74.727 49.882 74.477 50.601 73.477 50.601 c 72.633 50.601 72.023 49.96
 72.023 49.241 c 72.023 48.491 72.711 47.866 73.555 47.866 c 74.43 47.866
 74.727 48.523 74.727 48.648 c h
74.289 49.46 m 72.617 49.46 l 72.68 50.257 73.227 50.413 73.477 50.413 
c 74.242 50.413 74.289 49.632 74.289 49.46 c h
74.289 49.46 m f
80.695 47.929 m 80.695 48.163 l 80.273 48.163 80.227 48.163 80.227 48.413
 c 80.227 49.741 l 80.227 50.351 79.867 50.57 79.273 50.57 c 78.711 50.57
 78.383 50.257 78.258 50.023 c 78.117 50.57 77.508 50.57 77.336 50.57 c 
76.805 50.57 76.461 50.273 76.32 50.023 c 76.305 50.023 l 76.305 50.57 l
 75.383 50.507 l 75.383 50.273 l 75.805 50.273 75.852 50.226 75.852 49.929
 c 75.852 48.413 l 75.852 48.163 75.805 48.163 75.383 48.163 c 75.383 47.929
 l 75.43 47.929 75.836 47.96 76.102 47.96 c 76.367 47.96 76.773 47.929 76.82
 47.929 c 76.82 48.163 l 76.414 48.163 76.352 48.163 76.352 48.413 c 76.352
 49.476 l 76.352 50.132 76.93 50.382 77.289 50.382 c 77.695 50.382 77.789
 50.116 77.789 49.741 c 77.789 48.413 l 77.789 48.163 77.727 48.163 77.32
 48.163 c 77.32 47.929 l 77.367 47.929 77.773 47.96 78.039 47.96 c 78.305
 47.96 78.695 47.929 78.758 47.929 c 78.758 48.163 l 78.352 48.163 78.289
 48.163 78.289 48.413 c 78.289 49.476 l 78.289 50.132 78.852 50.382 79.227
 50.382 c 79.633 50.382 79.727 50.116 79.727 49.741 c 79.727 48.413 l 79.727
 48.163 79.664 48.163 79.258 48.163 c 79.258 47.929 l 79.289 47.929 79.695
 47.96 79.977 47.96 c 80.242 47.96 80.633 47.929 80.695 47.929 c h
80.695 47.929 m f
84.504 49.226 m 84.504 49.945 83.848 50.57 83.035 50.57 c 82.707 50.57 
82.363 50.476 82.082 50.21 c 82.082 52.085 l 81.129 52.023 l 81.129 51.788
 l 81.551 51.788 81.598 51.741 81.598 51.445 c 81.598 47.929 l 81.832 47.929
 l 82.035 48.288 l 82.238 48.054 82.551 47.866 82.957 47.866 c 83.785 47.866
 84.504 48.46 84.504 49.226 c h
83.926 49.226 m 83.926 48.085 83.066 48.054 82.926 48.054 c 82.723 48.054
 82.426 48.116 82.191 48.429 c 82.098 48.554 82.098 48.57 82.098 48.679 
c 82.098 49.913 l 82.285 50.21 82.645 50.382 82.988 50.382 c 83.316 50.382
 83.551 50.226 83.691 50.054 c 83.879 49.82 83.926 49.538 83.926 49.226 
c h
83.926 49.226 m f
86.625 47.929 m 86.625 48.163 l 86.219 48.163 86.156 48.163 86.156 48.413
 c 86.156 52.085 l 85.219 52.023 l 85.219 51.788 l 85.625 51.788 85.688 
51.741 85.688 51.445 c 85.688 48.413 l 85.688 48.163 85.625 48.163 85.219
 48.163 c 85.219 47.929 l 85.922 47.96 l 86.156 47.96 86.391 47.945 86.625
 47.929 c h
86.625 47.929 m f
90.539 50.273 m 90.539 50.507 l 90.492 50.507 90.242 50.491 90.055 50.491
 c 89.898 50.491 89.57 50.507 89.492 50.507 c 89.492 50.273 l 89.711 50.257
 89.742 50.132 89.742 50.054 c 89.742 49.976 89.711 49.929 89.695 49.882
 c 88.992 48.46 l 88.227 50.038 l 88.211 50.07 88.18 50.101 88.18 50.148
 c 88.18 50.273 88.398 50.273 88.492 50.273 c 88.492 50.507 l 88.367 50.491
 87.945 50.491 87.789 50.491 c 87.695 50.491 87.32 50.491 87.164 50.507 
c 87.164 50.273 l 87.539 50.273 87.586 50.257 87.68 50.054 c 88.727 47.929
 l 88.57 47.616 l 88.414 47.304 88.211 46.898 87.789 46.898 c 87.773 46.898
 87.648 46.898 87.539 46.96 c 87.602 46.991 87.695 47.07 87.695 47.21 c 
87.695 47.366 87.57 47.476 87.414 47.476 c 87.273 47.476 87.148 47.382 87.148
 47.21 c 87.148 46.913 87.445 46.71 87.789 46.71 c 88.32 46.71 88.617 47.21
 88.711 47.398 c 89.945 49.898 l 90.117 50.257 90.414 50.273 90.539 50.273
 c h
90.539 50.273 m f
96.258 47.316 m 96.258 47.675 l 95.461 47.675 l 95.461 54.909 l 96.258 
54.909 l 96.258 55.269 l 95.086 55.269 l 95.086 47.316 l h
96.258 47.316 m f
99.531 50.331 m 99.531 50.706 99.312 51.269 98.359 51.441 c 98.297 51.456
 97.844 51.534 97.812 51.534 c 97.562 51.597 97.188 51.769 97.188 52.081
 c 97.188 52.316 97.375 52.659 98.125 52.659 c 99.016 52.659 99.062 52.003
 99.078 51.784 c 99.078 51.722 99.141 51.691 99.188 51.691 c 99.328 51.691
 99.328 51.753 99.328 51.894 c 99.328 52.644 l 99.328 52.769 99.328 52.847
 99.219 52.847 c 99.172 52.847 99.156 52.847 99.031 52.722 c 99.016 52.722
 98.938 52.644 98.922 52.644 c 98.922 52.644 98.891 52.644 98.844 52.675
 c 98.719 52.769 98.484 52.847 98.125 52.847 c 97.016 52.847 96.766 52.253
 96.766 51.863 c 96.766 51.472 97.062 51.238 97.078 51.206 c 97.406 50.972
 97.578 50.941 98.125 50.847 c 98.5 50.769 99.109 50.659 99.109 50.128 c
 99.109 49.816 98.906 49.441 98.172 49.441 c 97.359 49.441 97.125 50.066
 97.031 50.488 c 97 50.597 96.984 50.628 96.891 50.628 c 96.766 50.628 96.766
 50.566 96.766 50.409 c 96.766 49.425 l 96.766 49.3 96.766 49.222 96.859
 49.222 c 96.922 49.222 96.922 49.222 97.062 49.378 c 97.109 49.425 97.188
 49.519 97.234 49.566 c 97.594 49.238 97.969 49.222 98.172 49.222 c 99.188
 49.222 99.531 49.8 99.531 50.331 c h
99.531 50.331 m f
101.184 47.316 m 101.184 55.269 l 100.012 55.269 l 100.012 54.909 l 100.809
 54.909 l 100.809 47.675 l 100.012 47.675 l 100.012 47.316 l h
101.184 47.316 m f
1 0.290196 0.290196 rg
q 1 0 0 1 0 236.343002 cm
35.996 -196.258 m 53.004 -196.258 l S Q
q 1 0 0 1 0 236.343002 cm
44.5 -196.258 m 44.5 -194.266 l 44.5 -196.258 m 46.395 -195.641 l 44.5 
-196.258 m 45.672 -197.867 l 44.5 -196.258 m 43.328 -197.867 l 44.5 -196.258
 m 42.605 -195.641 l S Q
0 g
66.594 40.515 m 66.594 42.046 65.438 43.281 64 43.281 c 60.969 43.281 l
 60.969 43.015 l 61.156 43.015 l 61.766 43.015 61.781 42.937 61.781 42.64
 c 61.781 38.484 l 61.781 38.187 61.766 38.109 61.156 38.109 c 60.969 38.109
 l 60.969 37.843 l 64 37.843 l 65.438 37.843 66.594 39.031 66.594 40.515
 c h
65.781 40.515 m 65.781 40.109 65.781 39.327 65.281 38.749 c 65.016 38.421
 64.5 38.109 63.781 38.109 c 62.875 38.109 l 62.5 38.109 62.484 38.156 62.484
 38.437 c 62.484 42.702 l 62.484 42.968 62.5 43.015 62.875 43.015 c 63.781
 43.015 l 64.406 43.015 64.922 42.765 65.281 42.374 c 65.781 41.765 65.781
 40.906 65.781 40.515 c h
65.781 40.515 m f
71.059 39.546 m 71.059 40.531 70.23 41.39 69.184 41.39 c 68.137 41.39 67.309
 40.531 67.309 39.546 c 67.309 38.546 68.168 37.765 69.184 37.765 c 70.215
 37.765 71.059 38.546 71.059 39.546 c h
70.355 39.609 m 70.355 39.249 70.34 38.812 70.105 38.468 c 69.902 38.156
 69.543 38.015 69.184 38.015 c 68.762 38.015 68.418 38.218 68.246 38.499
 c 68.043 38.827 68.027 39.218 68.027 39.609 c 68.027 39.921 68.027 40.39
 68.262 40.734 c 68.48 41.015 68.809 41.171 69.184 41.171 c 69.605 41.171
 69.949 40.968 70.121 40.702 c 70.34 40.359 70.355 39.937 70.355 39.609 
c h
70.355 39.609 m f
74.309 42.874 m 74.309 43.218 73.98 43.452 73.559 43.452 c 72.965 43.452
 72.246 43.015 72.246 42.171 c 72.246 41.281 l 71.59 41.281 l 71.59 41.015
 l 72.246 41.015 l 72.246 38.468 l 72.246 38.109 72.152 38.109 71.637 38.109
 c 71.637 37.843 l 71.949 37.874 72.387 37.874 72.59 37.874 c 73.059 37.874
 73.074 37.874 73.59 37.843 c 73.59 38.109 l 73.434 38.109 l 72.84 38.109
 72.824 38.187 72.824 38.484 c 72.824 41.015 l 73.793 41.015 l 73.793 41.281
 l 72.809 41.281 l 72.809 42.171 l 72.809 42.874 73.199 43.234 73.543 43.234
 c 73.668 43.234 73.746 43.202 73.777 43.187 c 73.637 43.124 73.59 42.984
 73.59 42.874 c 73.59 42.671 73.746 42.515 73.949 42.515 c 74.168 42.515
 74.309 42.671 74.309 42.874 c h
74.309 42.874 m f
76.945 38.874 m 76.945 39.249 76.727 39.812 75.773 39.984 c 75.711 39.999
 75.258 40.077 75.227 40.077 c 74.977 40.14 74.602 40.312 74.602 40.624 
c 74.602 40.859 74.789 41.202 75.539 41.202 c 76.43 41.202 76.477 40.546
 76.492 40.327 c 76.492 40.265 76.555 40.234 76.602 40.234 c 76.742 40.234
 76.742 40.296 76.742 40.437 c 76.742 41.187 l 76.742 41.312 76.742 41.39
 76.633 41.39 c 76.586 41.39 76.57 41.39 76.445 41.265 c 76.43 41.265 76.352
 41.187 76.336 41.187 c 76.336 41.187 76.305 41.187 76.258 41.218 c 76.133
 41.312 75.898 41.39 75.539 41.39 c 74.43 41.39 74.18 40.796 74.18 40.406
 c 74.18 40.015 74.477 39.781 74.492 39.749 c 74.82 39.515 74.992 39.484
 75.539 39.39 c 75.914 39.312 76.523 39.202 76.523 38.671 c 76.523 38.359
 76.32 37.984 75.586 37.984 c 74.773 37.984 74.539 38.609 74.445 39.031 
c 74.414 39.14 74.398 39.171 74.305 39.171 c 74.18 39.171 74.18 39.109 74.18
 38.952 c 74.18 37.968 l 74.18 37.843 74.18 37.765 74.273 37.765 c 74.336
 37.765 74.336 37.765 74.477 37.921 c 74.523 37.968 74.602 38.062 74.648
 38.109 c 75.008 37.781 75.383 37.765 75.586 37.765 c 76.602 37.765 76.945
 38.343 76.945 38.874 c h
76.945 38.874 m f
80.988 36.031 m 80.988 36.031 80.988 36.077 80.957 36.171 c 78.098 43.624
 l 78.051 43.718 78.02 43.812 77.895 43.812 c 77.785 43.812 77.707 43.734
 77.707 43.64 c 77.707 43.64 77.707 43.593 77.754 43.499 c 80.613 36.046
 l 80.645 35.952 80.676 35.859 80.801 35.859 c 80.91 35.859 80.988 35.937
 80.988 36.031 c h
80.988 36.031 m f
87.113 39.702 m 87.113 39.781 87.113 39.859 86.973 39.859 c 86.895 39.859
 86.863 39.812 86.863 39.734 c 86.801 38.515 85.801 37.937 84.957 37.937
 c 84.285 37.937 82.77 38.359 82.77 40.562 c 82.77 42.718 84.207 43.187 
84.957 43.187 c 85.707 43.187 86.629 42.656 86.848 41.281 c 86.848 41.218
 86.863 41.171 86.973 41.171 c 87.113 41.171 87.113 41.218 87.113 41.374
 c 87.113 43.249 l 87.113 43.374 87.113 43.452 87.004 43.452 c 86.941 43.452
 86.941 43.452 86.863 43.343 c 86.457 42.749 l 86.176 43.062 85.645 43.452
 84.879 43.452 c 83.285 43.452 81.941 42.171 81.941 40.562 c 81.941 38.952
 83.27 37.671 84.895 37.671 c 86.223 37.671 87.113 38.734 87.113 39.702 
c h
87.113 39.702 m f
91.574 39.546 m 91.574 40.531 90.746 41.39 89.699 41.39 c 88.652 41.39 
87.824 40.531 87.824 39.546 c 87.824 38.546 88.684 37.765 89.699 37.765 
c 90.73 37.765 91.574 38.546 91.574 39.546 c h
90.871 39.609 m 90.871 39.249 90.855 38.812 90.621 38.468 c 90.418 38.156
 90.059 38.015 89.699 38.015 c 89.277 38.015 88.934 38.218 88.762 38.499
 c 88.559 38.827 88.543 39.218 88.543 39.609 c 88.543 39.921 88.543 40.39
 88.777 40.734 c 88.996 41.015 89.324 41.171 89.699 41.171 c 90.121 41.171
 90.465 40.968 90.637 40.702 c 90.855 40.359 90.871 39.937 90.871 39.609
 c h
90.871 39.609 m f
94.887 40.859 m 94.887 41.14 94.637 41.359 94.277 41.359 c 93.762 41.359
 93.402 40.968 93.246 40.515 c 93.23 40.515 l 93.23 41.359 l 92.105 41.265
 l 92.105 40.999 l 92.652 40.999 92.715 40.952 92.715 40.562 c 92.715 38.468
 l 92.715 38.109 92.605 38.109 92.105 38.109 c 92.105 37.843 l 92.418 37.874
 92.855 37.874 93.043 37.874 c 93.512 37.874 93.527 37.874 94.043 37.843
 c 94.043 38.109 l 93.887 38.109 l 93.309 38.109 93.293 38.187 93.293 38.484
 c 93.293 39.656 l 93.293 40.265 93.543 41.124 94.309 41.14 c 94.262 41.109
 94.168 41.046 94.168 40.859 c 94.168 40.609 94.371 40.499 94.527 40.499
 c 94.715 40.499 94.887 40.624 94.887 40.859 c h
94.887 40.859 m f
98.641 38.796 m 98.641 38.827 98.609 38.906 98.516 38.906 c 98.422 38.906
 98.406 38.859 98.391 38.812 c 98.109 38.031 97.422 38.015 97.281 38.015
 c 96.922 38.015 96.547 38.171 96.312 38.546 c 96.078 38.906 96.078 39.421
 96.078 39.656 c 98.422 39.656 l 98.594 39.656 98.641 39.656 98.641 39.843
 c 98.641 40.546 98.25 41.39 97.125 41.39 c 96.141 41.39 95.359 40.577 95.359
 39.593 c 95.359 38.562 96.219 37.765 97.234 37.765 c 98.234 37.765 98.641
 38.609 98.641 38.796 c h
98.094 39.874 m 96.078 39.874 l 96.156 40.984 96.828 41.171 97.125 41.171
 c 98.062 41.171 98.094 40.046 98.094 39.874 c h
98.094 39.874 m f
Q Q
showpage
%%Trailer
end restore
%%EOF
